$MeshFormat
2.2 0 8
$EndMeshFormat
$PhysicalNames
2
1 1 "SURFACE"
2 2 "ALL_ELEMENTS"
$EndPhysicalNames
$Nodes
1281
1 0 0 0
2 100 0 0
3 100 12.5 0
4 0 12.5 0
5 1.666666666660106 0 0
6 3.333333333320185 0 0
7 4.999999999979744 0 0
8 6.666666666639692 0 0
9 8.333333333300587 0 0
10 9.99999999996156 0 0
11 11.66666666662253 0 0
12 13.33333333328203 0 0
13 14.99999999994004 0 0
14 16.66666666659806 0 0
15 18.33333333325607 0 0
16 19.99999999991408 0 0
17 21.6666666665721 0 0
18 23.33333333323011 0 0
19 24.99999999988813 0 0
20 26.66666666654615 0 0
21 28.33333333320416 0 0
22 29.99999999986218 0 0
23 31.66666666652094 0 0
24 33.33333333318424 0 0
25 34.99999999984817 0 0
26 36.66666666651211 0 0
27 38.33333333317606 0 0
28 39.99999999984 0 0
29 41.66666666650394 0 0
30 43.33333333316789 0 0
31 44.99999999983182 0 0
32 46.66666666649576 0 0
33 48.33333333315971 0 0
34 49.99999999982364 0 0
35 51.66666666648759 0 0
36 53.33333333315152 0 0
37 54.99999999981547 0 0
38 56.66666666647942 0 0
39 58.33333333314334 0 0
40 59.99999999980729 0 0
41 61.66666666647124 0 0
42 63.33333333313536 0 0
43 64.99999999980855 0 0
44 66.66666666648433 0 0
45 68.33333333316011 0 0
46 69.99999999983589 0 0
47 71.66666666651167 0 0
48 73.33333333318747 0 0
49 74.99999999986325 0 0
50 76.66666666653903 0 0
51 78.33333333321481 0 0
52 79.99999999989059 0 0
53 81.66666666656639 0 0
54 83.33333333324217 0 0
55 84.99999999991795 0 0
56 86.66666666659373 0 0
57 88.33333333326951 0 0
58 89.9999999999453 0 0
59 91.66666666662108 0 0
60 93.33333333329686 0 0
61 94.99999999997264 0 0
62 96.66666666664843 0 0
63 98.33333333332422 0 0
64 100 0.6249999999974681 0
65 100 1.249999999995195 0
66 100 1.874999999992506 0
67 100 2.499999999989261 0
68 100 3.124999999986016 0
69 100 3.749999999982773 0
70 100 4.374999999981022 0
71 100 4.99999999998 0
72 100 5.624999999978978 0
73 100 6.249999999977955 0
74 100 6.874999999976934 0
75 100 7.499999999975912 0
76 100 8.124999999976069 0
77 100 8.749999999979488 0
78 100 9.374999999982906 0
79 100 9.999999999986326 0
80 100 10.62499999998974 0
81 100 11.24999999999316 0
82 100 11.87499999999658 0
83 98.33333333334518 12.5 0
84 96.66666666669036 12.5 0
85 95.00000000003553 12.5 0
86 93.33333333338071 12.5 0
87 91.66666666672589 12.5 0
88 90.00000000007105 12.5 0
89 88.33333333341624 12.5 0
90 86.66666666676142 12.5 0
91 85.00000000010658 12.5 0
92 83.33333333345176 12.5 0
93 81.66666666679693 12.5 0
94 80.00000000014211 12.5 0
95 78.33333333348729 12.5 0
96 76.66666666683246 12.5 0
97 75.00000000017764 12.5 0
98 73.3333333335228 12.5 0
99 71.666666666868 12.5 0
100 70.00000000021316 12.5 0
101 68.33333333355834 12.5 0
102 66.66666666690352 12.5 0
103 65.00000000024869 12.5 0
104 63.33333333359128 12.5 0
105 61.66666666692479 12.5 0
106 60.00000000025813 12.5 0
107 58.33333333359146 12.5 0
108 56.66666666692479 12.5 0
109 55.00000000025813 12.5 0
110 53.33333333359146 12.5 0
111 51.66666666692479 12.5 0
112 50.00000000025813 12.5 0
113 48.33333333359147 12.5 0
114 46.6666666669248 12.5 0
115 45.00000000025813 12.5 0
116 43.33333333359146 12.5 0
117 41.66666666692479 12.5 0
118 40.00000000025813 12.5 0
119 38.33333333359146 12.5 0
120 36.66666666692461 12.5 0
121 35.00000000024869 12.5 0
122 33.33333333357018 12.5 0
123 31.66666666689167 12.5 0
124 30.00000000021316 12.5 0
125 28.33333333353465 12.5 0
126 26.66666666685615 12.5 0
127 25.00000000017764 12.5 0
128 23.33333333349911 12.5 0
129 21.66666666682062 12.5 0
130 20.00000000014211 12.5 0
131 18.33333333346359 12.5 0
132 16.66666666678509 12.5 0
133 15.00000000010657 12.5 0
134 13.33333333342807 12.5 0
135 11.66666666674956 12.5 0
136 10.00000000007105 12.5 0
137 8.333333333392531 12.5 0
138 6.666666666714022 12.5 0
139 5.000000000035527 12.5 0
140 3.333333333357004 12.5 0
141 1.666666666678509 12.5 0
142 0 11.87500000000444 0
143 0 11.25000000000888 0
144 0 10.62500000001332 0
145 0 10.00000000001776 0
146 0 9.375000000022205 0
147 0 8.750000000026645 0
148 0 8.125000000031086 0
149 0 7.500000000032266 0
150 0 6.875000000032266 0
151 0 6.250000000032266 0
152 0 5.625000000032266 0
153 0 5.000000000032266 0
154 0 4.375000000031086 0
155 0 3.750000000026645 0
156 0 3.125000000022205 0
157 0 2.500000000017764 0
158 0 1.875000000013321 0
159 0 1.250000000008882 0
160 0 0.6250000000044409 0
161 1.666666666661026 0.6250000000043247 0
162 1.666666666661946 1.250000000008654 0
163 1.666666666662866 1.875000000012974 0
164 1.666666666663787 2.500000000017289 0
165 1.666666666664706 3.125000000021601 0
166 1.666666666665627 3.750000000025914 0
167 1.666666666666547 4.375000000030251 0
168 1.666666666667467 5.000000000031393 0
169 1.666666666668387 5.625000000031379 0
170 1.666666666669308 6.250000000031361 0
171 1.666666666670228 6.875000000031343 0
172 1.666666666671148 7.500000000031324 0
173 1.666666666672068 8.12500000003017 0
174 1.666666666672988 8.75000000002586 0
175 1.666666666673909 9.375000000021549 0
176 1.666666666674829 10.00000000001724 0
177 1.666666666675749 10.62500000001293 0
178 1.666666666676669 11.25000000000862 0
179 1.666666666677589 11.87500000000431 0
180 3.333333333322026 0.6250000000042083 0
181 3.333333333323867 1.250000000008426 0
182 3.333333333325708 1.875000000012627 0
183 3.333333333327548 2.500000000016813 0
184 3.33333333332939 3.125000000020997 0
185 3.333333333331231 3.750000000025183 0
186 3.333333333333071 4.375000000029418 0
187 3.333333333334912 5.000000000030522 0
188 3.333333333336753 5.625000000030491 0
189 3.333333333338595 6.250000000030456 0
190 3.333333333340436 6.87500000003042 0
191 3.333333333342276 7.500000000030387 0
192 3.333333333344116 8.125000000029253 0
193 3.333333333345958 8.750000000025073 0
194 3.3333333333478 9.375000000020895 0
195 3.33333333334964 10.00000000001672 0
196 3.333333333351481 10.62500000001254 0
197 3.333333333353322 11.25000000000836 0
198 3.333333333355163 11.87500000000418 0
199 4.999999999982533 0.6250000000040922 0
200 4.999999999985322 1.250000000008197 0
201 4.999999999988111 1.87500000001228 0
202 4.999999999990902 2.500000000016339 0
203 4.99999999999369 3.125000000020395 0
204 4.999999999996479 3.750000000024452 0
205 4.999999999999268 4.375000000028584 0
206 5.000000000002057 5.000000000029653 0
207 5.000000000004846 5.625000000029602 0
208 5.000000000007637 6.250000000029552 0
209 5.000000000010425 6.8750000000295 0
210 5.000000000013214 7.500000000029448 0
211 5.000000000016003 8.125000000028336 0
212 5.000000000018792 8.750000000024288 0
213 5.000000000021581 9.37500000002024 0
214 5.00000000002437 10.00000000001619 0
215 5.000000000027158 10.62500000001215 0
216 5.000000000029949 11.2500000000081 0
217 5.000000000032738 11.87500000000405 0
218 6.666666666643407 0.6250000000039762 0
219 6.666666666647124 1.25000000000797 0
220 6.666666666650842 1.875000000011934 0
221 6.666666666654557 2.500000000015864 0
222 6.666666666658274 3.125000000019792 0
223 6.666666666661993 3.750000000023721 0
224 6.666666666665709 4.375000000027749 0
225 6.666666666669423 5.000000000028781 0
226 6.666666666673141 5.625000000028714 0
227 6.666666666676857 6.250000000028646 0
228 6.666666666680572 6.875000000028576 0
229 6.666666666684289 7.500000000028507 0
230 6.666666666688007 8.12500000002742 0
231 6.666666666691723 8.750000000023503 0
232 6.66666666669544 9.375000000019586 0
233 6.666666666699156 10.00000000001567 0
234 6.666666666702874 10.62500000001175 0
235 6.66666666670659 11.25000000000783 0
236 6.666666666710306 11.87500000000392 0
237 8.333333333305184 0.6250000000038599 0
238 8.333333333309781 1.250000000007741 0
239 8.333333333314377 1.875000000011586 0
240 8.333333333318976 2.500000000015388 0
241 8.333333333323573 3.125000000019189 0
242 8.33333333332817 3.750000000022989 0
243 8.333333333332767 4.375000000026914 0
244 8.333333333337365 5.000000000027912 0
245 8.333333333341962 5.625000000027826 0
246 8.333333333346559 6.25000000002774 0
247 8.333333333351156 6.875000000027655 0
248 8.333333333355753 7.500000000027569 0
249 8.333333333360351 8.125000000026502 0
250 8.333333333364948 8.750000000022714 0
251 8.333333333369545 9.375000000018929 0
252 8.333333333374142 10.00000000001515 0
253 8.333333333378739 10.62500000001136 0
254 8.333333333383337 11.25000000000757 0
255 8.333333333387934 11.87500000000379 0
256 9.999999999967034 0.6250000000037439 0
257 9.999999999972511 1.250000000007513 0
258 9.999999999977979 1.87500000001124 0
259 9.999999999983459 2.500000000014914 0
260 9.999999999988933 3.125000000018585 0
261 9.999999999994408 3.750000000022259 0
262 9.999999999999883 4.37500000002608 0
263 10.00000000000536 5.000000000027038 0
264 10.00000000001083 5.625000000026939 0
265 10.00000000001631 6.250000000026834 0
266 10.00000000002178 6.875000000026732 0
267 10.00000000002726 7.500000000026629 0
268 10.00000000003273 8.125000000025583 0
269 10.00000000003821 8.750000000021929 0
270 10.00000000004368 9.375000000018273 0
271 10.00000000004916 10.00000000001462 0
272 10.00000000005463 10.62500000001097 0
273 10.00000000006011 11.25000000000731 0
274 10.00000000006558 11.87500000000365 0
275 11.66666666662889 0.6250000000036275 0
276 11.66666666663524 1.250000000007285 0
277 11.66666666664159 1.875000000010892 0
278 11.66666666664794 2.500000000014438 0
279 11.66666666665429 3.125000000017983 0
280 11.66666666666064 3.750000000021527 0
281 11.666666666667 4.375000000025245 0
282 11.66666666667335 5.000000000026168 0
283 11.6666666666797 5.62500000002605 0
284 11.66666666668605 6.25000000002593 0
285 11.6666666666924 6.875000000025809 0
286 11.66666666669875 7.500000000025691 0
287 11.6666666667051 8.125000000024667 0
288 11.66666666671146 8.750000000021146 0
289 11.66666666671781 9.37500000001762 0
290 11.66666666672416 10.00000000001409 0
291 11.66666666673051 10.62500000001057 0
292 11.66666666673686 11.25000000000705 0
293 11.66666666674321 11.87500000000353 0
294 13.33333333328933 0.6250000000035111 0
295 13.33333333329663 1.250000000007057 0
296 13.33333333330394 1.875000000010545 0
297 13.33333333331124 2.500000000013964 0
298 13.33333333331854 3.125000000017379 0
299 13.33333333332584 3.750000000020795 0
300 13.33333333333314 4.375000000024412 0
301 13.33333333334044 5.000000000025297 0
302 13.33333333334775 5.625000000025161 0
303 13.33333333335505 6.250000000025025 0
304 13.33333333336235 6.875000000024888 0
305 13.33333333336966 7.500000000024752 0
306 13.33333333337696 8.12500000002375 0
307 13.33333333338426 8.750000000020359 0
308 13.33333333339156 9.375000000016966 0
309 13.33333333339886 10.00000000001357 0
310 13.33333333340616 10.62500000001018 0
311 13.33333333341347 11.25000000000679 0
312 13.33333333342077 11.87500000000339 0
313 14.99999999994837 0.6250000000033952 0
314 14.9999999999567 1.250000000006829 0
315 14.99999999996502 1.875000000010199 0
316 14.99999999997335 2.500000000013488 0
317 14.99999999998168 3.125000000016776 0
318 14.99999999999 3.750000000020064 0
319 14.99999999999832 4.375000000023576 0
320 15.00000000000665 5.000000000024426 0
321 15.00000000001498 5.625000000024274 0
322 15.00000000002331 6.250000000024119 0
323 15.00000000003163 6.875000000023967 0
324 15.00000000003996 7.500000000023812 0
325 15.00000000004829 8.125000000022833 0
326 15.00000000005661 8.750000000019576 0
327 15.00000000006494 9.375000000016311 0
328 15.00000000007326 10.00000000001305 0
329 15.00000000008159 10.62500000000979 0
330 15.00000000008991 11.25000000000652 0
331 15.00000000009824 11.87500000000326 0
332 16.66666666660741 0.6250000000032789 0
333 16.66666666661676 1.250000000006601 0
334 16.66666666662612 1.875000000009852 0
335 16.66666666663547 2.500000000013014 0
336 16.66666666664482 3.125000000016173 0
337 16.66666666665417 3.750000000019334 0
338 16.66666666666352 4.375000000022742 0
339 16.66666666667287 5.000000000023555 0
340 16.66666666668222 5.625000000023386 0
341 16.66666666669157 6.250000000023214 0
342 16.66666666670092 6.875000000023043 0
343 16.66666666671027 7.500000000022873 0
344 16.66666666671963 8.125000000021917 0
345 16.66666666672898 8.750000000018785 0
346 16.66666666673833 9.375000000015655 0
347 16.66666666674768 10.00000000001253 0
348 16.66666666675704 10.6250000000094 0
349 16.6666666667664 11.25000000000626 0
350 16.66666666677574 11.87500000000313 0
351 18.33333333326644 0.6250000000031625 0
352 18.33333333327682 1.250000000006373 0
353 18.3333333332872 1.875000000009505 0
354 18.33333333329757 2.500000000012539 0
355 18.33333333330795 3.125000000015569 0
356 18.33333333331832 3.750000000018602 0
357 18.3333333333287 4.375000000021908 0
358 18.33333333333907 5.000000000022683 0
359 18.33333333334945 5.625000000022497 0
360 18.33333333335983 6.250000000022309 0
361 18.3333333333702 6.87500000002212 0
362 18.33333333338058 7.500000000021935 0
363 18.33333333339095 8.125000000021 0
364 18.33333333340133 8.750000000018003 0
365 18.3333333334117 9.375000000014996 0
366 18.33333333342208 10.000000000012 0
367 18.33333333343246 10.625000000009 0
368 18.33333333344283 11.250000000006 0
369 18.33333333345321 11.875000000003 0
370 19.99999999992548 0.6250000000030463 0
371 19.99999999993688 1.250000000006144 0
372 19.99999999994829 1.875000000009158 0
373 19.99999999995969 2.500000000012063 0
374 19.99999999997109 3.125000000014967 0
375 19.99999999998249 3.750000000017872 0
376 19.9999999999939 4.375000000021074 0
377 20.00000000000529 5.000000000021811 0
378 20.00000000001669 5.625000000021609 0
379 20.0000000000281 6.250000000021404 0
380 20.00000000003949 6.875000000021199 0
381 20.0000000000509 7.500000000020994 0
382 20.0000000000623 8.12500000002008 0
383 20.0000000000737 8.750000000017217 0
384 20.0000000000851 9.375000000014344 0
385 20.00000000009651 10.00000000001148 0
386 20.0000000001079 10.62500000000861 0
387 20.00000000011931 11.25000000000574 0
388 20.00000000013071 11.87500000000287 0
389 21.66666666658452 0.6250000000029302 0
390 21.66666666659695 1.250000000005916 0
391 21.66666666660938 1.875000000008811 0
392 21.6666666666218 2.500000000011589 0
393 21.66666666663424 3.125000000014364 0
394 21.66666666664666 3.750000000017139 0
395 21.66666666665908 4.375000000020238 0
396 21.6666666666715 5.000000000020942 0
397 21.66666666668394 5.625000000020721 0
398 21.66666666669636 6.2500000000205 0
399 21.66666666670879 6.875000000020277 0
400 21.66666666672121 7.500000000020056 0
401 21.66666666673363 8.125000000019163 0
402 21.66666666674606 8.750000000016426 0
403 21.66666666675849 9.375000000013689 0
404 21.66666666677091 10.00000000001095 0
405 21.66666666678334 10.62500000000821 0
406 21.66666666679576 11.25000000000548 0
407 21.66666666680819 11.87500000000274 0
408 23.33333333324356 0.6250000000028139 0
409 23.33333333325701 1.250000000005688 0
410 23.33333333327046 1.875000000008464 0
411 23.33333333328391 2.500000000011112 0
412 23.33333333329736 3.125000000013761 0
413 23.33333333331082 3.750000000016408 0
414 23.33333333332426 4.375000000019403 0
415 23.33333333333771 5.000000000020071 0
416 23.33333333335116 5.625000000019832 0
417 23.33333333336461 6.250000000019594 0
418 23.33333333337806 6.875000000019355 0
419 23.33333333339152 7.500000000019117 0
420 23.33333333340496 8.125000000018247 0
421 23.33333333341841 8.750000000015644 0
422 23.33333333343186 9.375000000013037 0
423 23.33333333344531 10.00000000001043 0
424 23.33333333345876 10.62500000000782 0
425 23.33333333347222 11.25000000000522 0
426 23.33333333348566 11.87500000000261 0
427 24.9999999999026 0.6250000000026977 0
428 24.99999999991707 1.25000000000546 0
429 24.99999999993155 1.875000000008117 0
430 24.99999999994603 2.500000000010638 0
431 24.9999999999605 3.125000000013158 0
432 24.99999999997498 3.750000000015677 0
433 24.99999999998945 4.375000000018568 0
434 25.00000000000393 5.000000000019199 0
435 25.0000000000184 5.625000000018945 0
436 25.00000000003288 6.250000000018689 0
437 25.00000000004736 6.875000000018433 0
438 25.00000000006183 7.500000000018177 0
439 25.00000000007631 8.12500000001733 0
440 25.00000000009079 8.750000000014857 0
441 25.00000000010525 9.375000000012381 0
442 25.00000000011973 10.00000000000991 0
443 25.00000000013421 10.62500000000743 0
444 25.00000000014868 11.25000000000495 0
445 25.00000000016316 11.87500000000247 0
446 26.66666666656164 0.6250000000025816 0
447 26.66666666657714 1.250000000005232 0
448 26.66666666659265 1.87500000000777 0
449 26.66666666660814 2.500000000010163 0
450 26.66666666662364 3.125000000012554 0
451 26.66666666663915 3.750000000014946 0
452 26.66666666665464 4.375000000017736 0
453 26.66666666667014 5.000000000018328 0
454 26.66666666668564 5.625000000018057 0
455 26.66666666670114 6.250000000017783 0
456 26.66666666671665 6.87500000001751 0
457 26.66666666673214 7.500000000017239 0
458 26.66666666674764 8.125000000016414 0
459 26.66666666676315 8.750000000014071 0
460 26.66666666677864 9.375000000011726 0
461 26.66666666679415 10.00000000000938 0
462 26.66666666680965 10.62500000000703 0
463 26.66666666682514 11.25000000000469 0
464 26.66666666684064 11.87500000000235 0
465 28.33333333322068 0.6250000000024653 0
466 28.33333333323721 1.250000000005004 0
467 28.33333333325373 1.875000000007423 0
468 28.33333333327026 2.500000000009688 0
469 28.33333333328678 3.125000000011951 0
470 28.3333333333033 3.750000000014215 0
471 28.33333333331983 4.375000000016902 0
472 28.33333333333636 5.000000000017457 0
473 28.33333333335289 5.625000000017168 0
474 28.33333333336941 6.250000000016879 0
475 28.33333333338593 6.875000000016589 0
476 28.33333333340246 7.5000000000163 0
477 28.33333333341898 8.125000000015497 0
478 28.33333333343551 8.750000000013284 0
479 28.33333333345203 9.375000000011067 0
480 28.33333333346855 10.00000000000886 0
481 28.33333333348509 10.62500000000664 0
482 28.3333333335016 11.25000000000443 0
483 28.33333333351813 11.87500000000221 0
484 29.99999999987974 0.6250000000023489 0
485 29.99999999989728 1.250000000004776 0
486 29.99999999991484 1.875000000007076 0
487 29.99999999993237 2.500000000009213 0
488 29.99999999994993 3.125000000011348 0
489 29.99999999996748 3.750000000013484 0
490 29.99999999998503 4.375000000016068 0
491 30.00000000000258 5.000000000016585 0
492 30.00000000002012 5.62500000001628 0
493 30.00000000003767 6.250000000015973 0
494 30.00000000005523 6.875000000015666 0
495 30.00000000007277 7.500000000015358 0
496 30.00000000009032 8.12500000001458 0
497 30.00000000010788 8.750000000012497 0
498 30.00000000012543 9.375000000010415 0
499 30.00000000014297 10.00000000000833 0
500 30.00000000016052 10.62500000000625 0
501 30.00000000017806 11.25000000000417 0
502 30.00000000019561 11.87500000000208 0
503 31.66666666653947 0.625000000002233 0
504 31.66666666655802 1.250000000004548 0
505 31.66666666657656 1.875000000006729 0
506 31.66666666659508 2.500000000008738 0
507 31.66666666661362 3.125000000010745 0
508 31.66666666663216 3.750000000012753 0
509 31.6666666666507 4.375000000015232 0
510 31.66666666666924 5.000000000015715 0
511 31.66666666668778 5.625000000015391 0
512 31.6666666667063 6.250000000015067 0
513 31.66666666672484 6.875000000014743 0
514 31.66666666674338 7.500000000014421 0
515 31.66666666676191 8.125000000013664 0
516 31.66666666678045 8.750000000011715 0
517 31.66666666679899 9.375000000009759 0
518 31.66666666681753 10.00000000000781 0
519 31.66666666683607 10.62500000000586 0
520 31.66666666685461 11.2500000000039 0
521 31.66666666687314 11.87500000000195 0
522 33.33333333320354 0.6250000000021166 0
523 33.33333333322283 1.25000000000432 0
524 33.33333333324214 1.875000000006383 0
525 33.33333333326144 2.500000000008263 0
526 33.33333333328073 3.125000000010141 0
527 33.33333333330002 3.750000000012022 0
528 33.33333333331931 4.375000000014398 0
529 33.33333333333862 5.000000000014845 0
530 33.33333333335791 5.625000000014503 0
531 33.33333333337721 6.250000000014161 0
532 33.33333333339651 6.875000000013822 0
533 33.33333333341581 7.500000000013479 0
534 33.33333333343509 8.125000000012747 0
535 33.33333333345439 8.750000000010926 0
536 33.33333333347369 9.375000000009107 0
537 33.33333333349299 10.00000000000729 0
538 33.33333333351229 10.62500000000546 0
539 33.33333333353158 11.25000000000364 0
540 33.33333333355088 11.87500000000182 0
541 34.99999999986819 0.6250000000020004 0
542 34.99999999988822 1.250000000004092 0
543 34.99999999990826 1.875000000006035 0
544 34.99999999992829 2.500000000007788 0
545 34.9999999999483 3.125000000009538 0
546 34.99999999996832 3.750000000011291 0
547 34.99999999998836 4.375000000013563 0
548 35.00000000000837 5.000000000013973 0
549 35.00000000002841 5.625000000013616 0
550 35.00000000004843 6.250000000013258 0
551 35.00000000006845 6.875000000012898 0
552 35.00000000008848 7.500000000012542 0
553 35.00000000010851 8.125000000011831 0
554 35.00000000012854 8.750000000010138 0
555 35.00000000014857 9.37500000000845 0
556 35.00000000016858 10.00000000000676 0
557 35.00000000018861 10.62500000000507 0
558 35.00000000020864 11.25000000000338 0
559 35.00000000022865 11.87500000000169 0
560 36.66666666653273 0.6250000000018844 0
561 36.66666666655335 1.250000000003864 0
562 36.66666666657398 1.875000000005689 0
563 36.66666666659461 2.500000000007313 0
564 36.66666666661524 3.125000000008935 0
565 36.66666666663586 3.750000000010559 0
566 36.66666666665648 4.375000000012729 0
567 36.66666666667712 5.000000000013101 0
568 36.66666666669774 5.625000000012727 0
569 36.66666666671836 6.250000000012353 0
570 36.66666666673898 6.875000000011978 0
571 36.66666666675961 7.500000000011602 0
572 36.66666666678023 8.125000000010914 0
573 36.66666666680085 8.750000000009356 0
574 36.66666666682148 9.375000000007791 0
575 36.6666666668421 10.00000000000624 0
576 36.66666666686272 10.62500000000468 0
577 36.66666666688336 11.25000000000312 0
578 36.66666666690398 11.87500000000156 0
579 38.33333333319683 0.625000000001768 0
580 38.33333333321761 1.250000000003635 0
581 38.33333333323837 1.875000000005342 0
582 38.33333333325915 2.500000000006838 0
583 38.33333333327991 3.125000000008332 0
584 38.33333333330069 3.750000000009828 0
585 38.33333333332146 4.375000000011895 0
586 38.33333333334223 5.000000000012229 0
587 38.333333333363 5.625000000011839 0
588 38.33333333338376 6.250000000011447 0
589 38.33333333340454 6.875000000011055 0
590 38.3333333334253 7.500000000010663 0
591 38.33333333344607 8.125000000009997 0
592 38.33333333346683 8.750000000008567 0
593 38.33333333348761 9.375000000007137 0
594 38.33333333350839 10.00000000000571 0
595 38.33333333352915 10.62500000000429 0
596 38.33333333354991 11.25000000000286 0
597 38.33333333357069 11.87500000000143 0
598 39.9999999998609 0.6250000000016518 0
599 39.99999999988181 1.250000000003407 0
600 39.99999999990271 1.875000000004995 0
601 39.99999999992361 2.500000000006363 0
602 39.99999999994454 3.125000000007729 0
603 39.99999999996543 3.750000000009096 0
604 39.99999999998634 4.375000000011061 0
605 40.00000000000725 5.00000000001136 0
606 40.00000000002815 5.625000000010951 0
607 40.00000000004907 6.250000000010542 0
608 40.00000000006997 6.875000000010132 0
609 40.00000000009088 7.500000000009724 0
610 40.00000000011178 8.125000000009081 0
611 40.00000000013269 8.750000000007784 0
612 40.00000000015358 9.375000000006484 0
613 40.0000000001745 10.00000000000519 0
614 40.00000000019541 10.62500000000389 0
615 40.00000000021632 11.2500000000026 0
616 40.00000000023722 11.8750000000013 0
617 41.66666666652498 0.6250000000015358 0
618 41.66666666654601 1.250000000003179 0
619 41.66666666656705 1.875000000004648 0
620 41.66666666658811 2.500000000005889 0
621 41.66666666660915 3.125000000007126 0
622 41.66666666663019 3.750000000008366 0
623 41.66666666665122 4.375000000010227 0
624 41.66666666667229 5.000000000010489 0
625 41.66666666669332 5.625000000010063 0
626 41.66666666671435 6.250000000009637 0
627 41.66666666673541 6.87500000000921 0
628 41.66666666675645 7.500000000008786 0
629 41.66666666677748 8.125000000008164 0
630 41.66666666679854 8.750000000006997 0
631 41.66666666681957 9.375000000005832 0
632 41.66666666684062 10.00000000000467 0
633 41.66666666686166 10.6250000000035 0
634 41.6666666668827 11.25000000000233 0
635 41.66666666690376 11.87500000000117 0
636 43.33333333318906 0.6250000000014195 0
637 43.33333333321025 1.250000000002951 0
638 43.33333333323141 1.875000000004301 0
639 43.33333333325261 2.500000000005412 0
640 43.33333333327377 3.125000000006522 0
641 43.33333333329496 3.750000000007635 0
642 43.33333333331615 4.375000000009393 0
643 43.33333333333732 5.000000000009617 0
644 43.33333333335851 5.625000000009175 0
645 43.33333333337967 6.250000000008731 0
646 43.33333333340086 6.875000000008289 0
647 43.33333333342203 7.500000000007846 0
648 43.33333333344321 8.125000000007248 0
649 43.33333333346438 8.75000000000621 0
650 43.33333333348557 9.375000000005173 0
651 43.33333333350674 10.00000000000414 0
652 43.33333333352793 10.62500000000311 0
653 43.33333333354911 11.25000000000207 0
654 43.33333333357028 11.87500000000103 0
655 44.99999999985314 0.6250000000013031 0
656 44.99999999987446 1.250000000002723 0
657 44.99999999989577 1.875000000003954 0
658 44.99999999991708 2.500000000004938 0
659 44.9999999999384 3.12500000000592 0
660 44.99999999995972 3.750000000006902 0
661 44.99999999998104 4.375000000008558 0
662 45.00000000000235 5.000000000008745 0
663 45.00000000002366 5.625000000008287 0
664 45.00000000004498 6.250000000007828 0
665 45.00000000006629 6.875000000007367 0
666 45.00000000008761 7.500000000006907 0
667 45.00000000010892 8.125000000006327 0
668 45.00000000013024 8.750000000005427 0
669 45.00000000015155 9.375000000004516 0
670 45.00000000017286 10.00000000000362 0
671 45.00000000019419 10.62500000000271 0
672 45.00000000021551 11.25000000000181 0
673 45.00000000023682 11.87500000000091 0
674 46.6666666665172 0.6250000000011869 0
675 46.66666666653866 1.250000000002494 0
676 46.66666666656012 1.875000000003607 0
677 46.66666666658158 2.500000000004462 0
678 46.66666666660302 3.125000000005317 0
679 46.66666666662447 3.750000000006172 0
680 46.66666666664592 4.375000000007722 0
681 46.66666666666737 5.000000000007875 0
682 46.66666666668883 5.625000000007398 0
683 46.66666666671029 6.250000000006921 0
684 46.66666666673174 6.875000000006445 0
685 46.66666666675317 7.500000000005965 0
686 46.66666666677463 8.125000000005411 0
687 46.66666666679609 8.75000000000464 0
688 46.66666666681753 9.375000000003864 0
689 46.66666666683899 10.00000000000309 0
690 46.66666666686044 10.62500000000232 0
691 46.6666666668819 11.25000000000154 0
692 46.66666666690335 11.87500000000077 0
693 48.33333333318129 0.6250000000010708 0
694 48.33333333320288 1.250000000002267 0
695 48.33333333322447 1.875000000003261 0
696 48.33333333324607 2.500000000003988 0
697 48.33333333326764 3.125000000004713 0
698 48.33333333328923 3.75000000000544 0
699 48.33333333331083 4.375000000006887 0
700 48.33333333333242 5.000000000007003 0
701 48.33333333335401 5.62500000000651 0
702 48.3333333333756 6.250000000006017 0
703 48.33333333339719 6.875000000005522 0
704 48.33333333341878 7.500000000005027 0
705 48.33333333344034 8.125000000004492 0
706 48.33333333346194 8.750000000003853 0
707 48.33333333348353 9.375000000003208 0
708 48.33333333350512 10.00000000000257 0
709 48.33333333352671 10.62500000000193 0
710 48.3333333335483 11.25000000000129 0
711 48.33333333356988 11.87500000000064 0
712 49.99999999984537 0.6250000000009545 0
713 49.9999999998671 1.250000000002038 0
714 49.99999999988881 1.875000000002913 0
715 49.99999999991055 2.500000000003512 0
716 49.99999999993227 3.12500000000411 0
717 49.99999999995399 3.750000000004709 0
718 49.99999999997573 4.375000000006052 0
719 49.99999999999744 5.000000000006134 0
720 50.00000000001916 5.625000000005622 0
721 50.00000000004089 6.250000000005111 0
722 50.00000000006261 6.875000000004599 0
723 50.00000000008433 7.500000000004089 0
724 50.00000000010604 8.125000000003578 0
725 50.00000000012778 8.750000000003068 0
726 50.0000000001495 9.375000000002556 0
727 50.00000000017123 10.00000000000204 0
728 50.00000000019296 10.62500000000153 0
729 50.00000000021467 11.25000000000103 0
730 50.0000000002364 11.87500000000051 0
731 51.66666666650945 0.6250000000008384 0
732 51.66666666653131 1.25000000000181 0
733 51.66666666655318 1.875000000002566 0
734 51.66666666657503 2.500000000003038 0
735 51.66666666659689 3.125000000003507 0
736 51.66666666661876 3.750000000003979 0
737 51.66666666664061 4.375000000005219 0
738 51.66666666666248 5.000000000005262 0
739 51.66666666668432 5.625000000004733 0
740 51.66666666670619 6.250000000004206 0
741 51.66666666672806 6.875000000003677 0
742 51.66666666674991 7.500000000003148 0
743 51.66666666677178 8.125000000002661 0
744 51.66666666679363 8.750000000002281 0
745 51.6666666668155 9.375000000001901 0
746 51.66666666683735 10.00000000000152 0
747 51.66666666685921 10.62500000000114 0
748 51.66666666688109 11.25000000000076 0
749 51.66666666690293 11.87500000000038 0
750 53.33333333317352 0.6250000000007222 0
751 53.33333333319552 1.250000000001582 0
752 53.3333333332175 1.87500000000222 0
753 53.33333333323952 2.500000000002562 0
754 53.33333333326151 3.125000000002904 0
755 53.33333333328351 3.750000000003247 0
756 53.33333333330549 4.375000000004386 0
757 53.3333333333275 5.000000000004391 0
758 53.33333333334949 5.625000000003846 0
759 53.33333333337149 6.250000000003301 0
760 53.33333333339349 6.875000000002755 0
761 53.33333333341549 7.50000000000221 0
762 53.33333333343747 8.125000000001744 0
763 53.33333333345949 8.750000000001498 0
764 53.33333333348146 9.375000000001243 0
765 53.33333333350347 10.000000000001 0
766 53.33333333352547 10.62500000000075 0
767 53.33333333354747 11.2500000000005 0
768 53.33333333356946 11.87500000000025 0
769 54.99999999983759 0.6250000000006059 0
770 54.99999999985973 1.250000000001354 0
771 54.99999999988187 1.875000000001872 0
772 54.99999999990401 2.500000000002087 0
773 54.99999999992613 3.1250000000023 0
774 54.99999999994827 3.750000000002516 0
775 54.9999999999704 4.375000000003551 0
776 54.99999999999253 5.000000000003519 0
777 55.00000000001467 5.625000000002958 0
778 55.00000000003681 6.250000000002395 0
779 55.00000000005894 6.875000000001833 0
780 55.00000000008105 7.500000000001272 0
781 55.00000000010319 8.125000000000824 0
782 55.00000000012534 8.750000000000709 0
783 55.00000000014748 9.375000000000588 0
784 55.00000000016959 10.00000000000047 0
785 55.00000000019173 10.62500000000036 0
786 55.00000000021387 11.25000000000024 0
787 55.000000000236 11.87500000000012 0
788 56.6666666665017 0.6250000000004896 0
789 56.66666666652396 1.250000000001126 0
790 56.66666666654623 1.875000000001525 0
791 56.66666666656849 2.500000000001613 0
792 56.66666666659075 3.125000000001697 0
793 56.66666666661303 3.750000000001784 0
794 56.66666666663529 4.375000000002717 0
795 56.66666666665757 5.000000000002649 0
796 56.66666666667985 5.62500000000207 0
797 56.66666666670211 6.25000000000149 0
798 56.66666666672437 6.875000000000911 0
799 56.66666666674664 7.50000000000033 0
800 56.66666666676892 8.124999999999908 0
801 56.66666666679117 8.74999999999992 0
802 56.66666666681343 9.374999999999933 0
803 56.66666666683571 9.99999999999995 0
804 56.66666666685799 10.62499999999996 0
805 56.66666666688025 11.24999999999997 0
806 56.66666666690253 11.87499999999999 0
807 58.33333333316575 0.6250000000003736 0
808 58.33333333318817 1.250000000000898 0
809 58.33333333321056 1.875000000001179 0
810 58.33333333323297 2.500000000001136 0
811 58.33333333325538 3.125000000001094 0
812 58.33333333327778 3.750000000001053 0
813 58.33333333330018 4.375000000001882 0
814 58.33333333332259 5.000000000001778 0
815 58.333333333345 5.625000000001181 0
816 58.33333333336739 6.250000000000584 0
817 58.3333333333898 6.874999999999987 0
818 58.33333333341221 7.499999999999393 0
819 58.33333333343462 8.124999999998991 0
820 58.33333333345703 8.749999999999139 0
821 58.33333333347943 9.374999999999279 0
822 58.33333333350182 9.999999999999425 0
823 58.33333333352425 10.62499999999957 0
824 58.33333333354666 11.24999999999971 0
825 58.33333333356906 11.87499999999986 0
826 59.99999999982984 0.6250000000002572 0
827 59.99999999985236 1.25000000000067 0
828 59.99999999987491 1.875000000000831 0
829 59.99999999989745 2.500000000000662 0
830 59.99999999992001 3.125000000000491 0
831 59.99999999994255 3.750000000000323 0
832 59.99999999996508 4.375000000001046 0
833 59.99999999998762 5.000000000000906 0
834 60.00000000001018 5.625000000000293 0
835 60.0000000000327 6.24999999999968 0
836 60.00000000005527 6.874999999999067 0
837 60.00000000007779 7.499999999998452 0
838 60.00000000010034 8.124999999998074 0
839 60.00000000012288 8.74999999999835 0
840 60.00000000014542 9.374999999998627 0
841 60.00000000016796 9.999999999998902 0
842 60.00000000019051 10.62499999999918 0
843 60.00000000021304 11.24999999999945 0
844 60.00000000023557 11.87499999999973 0
845 61.66666666649391 0.6250000000001409 0
846 61.6666666665166 1.250000000000441 0
847 61.66666666653928 1.875000000000485 0
848 61.66666666656195 2.500000000000187 0
849 61.66666666658462 3.124999999999888 0
850 61.6666666666073 3.749999999999591 0
851 61.66666666662998 4.375000000000212 0
852 61.66666666665265 5.000000000000036 0
853 61.66666666667535 5.624999999999405 0
854 61.66666666669801 6.249999999998774 0
855 61.66666666672068 6.874999999998144 0
856 61.66666666674336 7.499999999997513 0
857 61.66666666676604 8.124999999997158 0
858 61.66666666678873 8.749999999997566 0
859 61.6666666668114 9.37499999999797 0
860 61.66666666683408 9.999999999998376 0
861 61.66666666685675 10.62499999999878 0
862 61.66666666687944 11.24999999999919 0
863 61.66666666690212 11.8749999999996 0
864 63.33333333315814 0.6250000000000251 0
865 63.33333333318095 1.250000000000213 0
866 63.33333333320375 1.875000000000138 0
867 63.33333333322653 2.499999999999712 0
868 63.33333333324934 3.124999999999285 0
869 63.33333333327215 3.74999999999886 0
870 63.33333333329495 4.374999999999379 0
871 63.33333333331773 4.999999999999163 0
872 63.33333333334052 5.624999999998517 0
873 63.33333333336333 6.249999999997868 0
874 63.33333333338612 6.874999999997222 0
875 63.33333333340892 7.499999999996575 0
876 63.33333333343171 8.12499999999624 0
877 63.33333333345451 8.74999999999678 0
878 63.3333333334773 9.374999999997314 0
879 63.33333333350009 9.999999999997851 0
880 63.33333333352288 10.62499999999839 0
881 63.33333333354568 11.24999999999893 0
882 63.33333333356848 11.87499999999946 0
883 64.99999999983055 0.6249999999999086 0
884 64.99999999985258 1.249999999999985 0
885 64.99999999987458 1.874999999999791 0
886 64.99999999989657 2.499999999999237 0
887 64.9999999999186 3.124999999998682 0
888 64.9999999999406 3.749999999998129 0
889 64.99999999996258 4.374999999998543 0
890 64.9999999999846 4.999999999998293 0
891 65.00000000000662 5.624999999997628 0
892 65.00000000002862 6.249999999996964 0
893 65.00000000005065 6.8749999999963 0
894 65.00000000007265 7.499999999995634 0
895 65.00000000009464 8.124999999995325 0
896 65.00000000011664 8.749999999995991 0
897 65.00000000013867 9.374999999996657 0
898 65.00000000016064 9.999999999997328 0
899 65.00000000018267 10.624999999998 0
900 65.00000000020469 11.24999999999867 0
901 65.00000000022669 11.87499999999933 0
902 66.66666666650528 0.6249999999997923 0
903 66.66666666652625 1.249999999999757 0
904 66.66666666654723 1.874999999999444 0
905 66.66666666656818 2.499999999998761 0
906 66.66666666658915 3.124999999998079 0
907 66.66666666661007 3.749999999997398 0
908 66.66666666663105 4.374999999997711 0
909 66.66666666665201 4.999999999997423 0
910 66.66666666667297 5.62499999999674 0
911 66.66666666669394 6.249999999996058 0
912 66.66666666671489 6.874999999995378 0
913 66.66666666673584 7.499999999994696 0
914 66.66666666675681 8.124999999994406 0
915 66.66666666677776 8.749999999995209 0
916 66.66666666679873 9.374999999996005 0
917 66.66666666681968 9.999999999996806 0
918 66.66666666684066 10.6249999999976 0
919 66.6666666668616 11.2499999999984 0
920 66.66666666688258 11.8749999999992 0
921 68.33333333318001 0.6249999999996762 0
922 68.33333333319993 1.249999999999529 0
923 68.33333333321984 1.874999999999097 0
924 68.33333333323975 2.499999999998288 0
925 68.33333333325967 3.124999999997475 0
926 68.3333333332796 3.749999999996666 0
927 68.33333333329948 4.374999999996876 0
928 68.33333333331942 4.99999999999655 0
929 68.33333333333931 5.624999999995851 0
930 68.33333333335924 6.249999999995154 0
931 68.33333333337913 6.874999999994456 0
932 68.33333333339905 7.499999999993758 0
933 68.33333333341898 8.124999999993491 0
934 68.33333333343887 8.749999999994421 0
935 68.3333333334588 9.374999999995351 0
936 68.33333333347868 9.99999999999628 0
937 68.33333333349862 10.62499999999721 0
938 68.3333333335185 11.24999999999814 0
939 68.33333333353843 11.87499999999907 0
940 69.99999999985475 0.62499999999956 0
941 69.99999999987361 1.249999999999301 0
942 69.99999999989248 1.87499999999875 0
943 69.99999999991135 2.499999999997812 0
944 69.99999999993023 3.124999999996873 0
945 69.99999999994907 3.749999999995935 0
946 69.99999999996794 4.374999999996041 0
947 69.99999999998678 4.999999999995679 0
948 70.00000000000566 5.624999999994963 0
949 70.00000000002453 6.249999999994248 0
950 70.0000000000434 6.874999999993532 0
951 70.00000000006224 7.499999999992816 0
952 70.00000000008112 8.124999999992573 0
953 70.00000000009999 8.749999999993635 0
954 70.00000000011886 9.374999999994696 0
955 70.0000000001377 9.999999999995758 0
956 70.00000000015658 10.62499999999682 0
957 70.00000000017545 11.24999999999788 0
958 70.00000000019429 11.87499999999894 0
959 71.66666666652949 0.6249999999994437 0
960 71.6666666665473 1.249999999999073 0
961 71.66666666656514 1.874999999998403 0
962 71.66666666658293 2.499999999997337 0
963 71.66666666660075 3.124999999996269 0
964 71.66666666661857 3.749999999995203 0
965 71.66666666663639 4.374999999995206 0
966 71.66666666665419 4.999999999994808 0
967 71.66666666667203 5.624999999994076 0
968 71.66666666668982 6.249999999993342 0
969 71.66666666670767 6.874999999992612 0
970 71.66666666672546 7.499999999991879 0
971 71.66666666674328 8.124999999991658 0
972 71.66666666676112 8.749999999992852 0
973 71.66666666677892 9.374999999994044 0
974 71.66666666679676 9.999999999995232 0
975 71.66666666681455 10.62499999999642 0
976 71.66666666683237 11.24999999999761 0
977 71.66666666685018 11.87499999999881 0
978 73.33333333320424 0.6249999999993275 0
979 73.33333333322101 1.249999999998845 0
980 73.33333333323778 1.874999999998056 0
981 73.33333333325454 2.499999999996861 0
982 73.3333333332713 3.124999999995665 0
983 73.33333333328807 3.749999999994473 0
984 73.33333333330482 4.374999999994372 0
985 73.33333333332159 4.999999999993937 0
986 73.33333333333836 5.624999999993188 0
987 73.33333333335514 6.249999999992439 0
988 73.33333333337191 6.874999999991688 0
989 73.33333333338867 7.499999999990939 0
990 73.33333333340543 8.124999999990742 0
991 73.3333333334222 8.749999999992063 0
992 73.33333333343897 9.374999999993387 0
993 73.33333333345576 9.99999999999471 0
994 73.33333333347252 10.62499999999603 0
995 73.33333333348929 11.24999999999735 0
996 73.33333333350606 11.87499999999868 0
997 74.99999999987895 0.6249999999992114 0
998 74.99999999989468 1.249999999998617 0
999 74.99999999991039 1.874999999997709 0
1000 74.99999999992612 2.499999999996386 0
1001 74.99999999994182 3.124999999995063 0
1002 74.99999999995754 3.749999999993741 0
1003 74.99999999997328 4.374999999993539 0
1004 74.999999999989 4.999999999993066 0
1005 75.00000000000469 5.624999999992299 0
1006 75.00000000002045 6.249999999991534 0
1007 75.00000000003615 6.874999999990768 0
1008 75.00000000005187 7.499999999989999 0
1009 75.00000000006759 8.124999999989825 0
1010 75.0000000000833 8.74999999999128 0
1011 75.00000000009902 9.374999999992728 0
1012 75.00000000011475 9.999999999994184 0
1013 75.00000000013046 10.62499999999564 0
1014 75.00000000014617 11.2499999999971 0
1015 75.00000000016193 11.87499999999855 0
1016 76.66666666655371 0.6249999999990951 0
1017 76.66666666656839 1.249999999998389 0
1018 76.66666666658306 1.874999999997362 0
1019 76.66666666659772 2.499999999995912 0
1020 76.66666666661239 3.12499999999446 0
1021 76.66666666662704 3.74999999999301 0
1022 76.66666666664172 4.374999999992703 0
1023 76.66666666665641 4.999999999992195 0
1024 76.66666666667108 5.62499999999141 0
1025 76.66666666668574 6.249999999990628 0
1026 76.66666666670041 6.874999999989845 0
1027 76.66666666671507 7.499999999989062 0
1028 76.66666666672977 8.124999999988908 0
1029 76.66666666674443 8.749999999990493 0
1030 76.6666666667591 9.374999999992074 0
1031 76.66666666677376 9.999999999993658 0
1032 76.66666666678843 10.62499999999525 0
1033 76.66666666680311 11.24999999999684 0
1034 76.66666666681778 11.87499999999842 0
1035 78.33333333322844 0.6249999999989787 0
1036 78.33333333324205 1.249999999998161 0
1037 78.33333333325568 1.874999999997016 0
1038 78.33333333326932 2.499999999995436 0
1039 78.33333333328295 3.124999999993857 0
1040 78.33333333329655 3.74999999999228 0
1041 78.33333333331019 4.374999999991871 0
1042 78.33333333332382 4.999999999991324 0
1043 78.33333333333744 5.624999999990525 0
1044 78.33333333335105 6.249999999989722 0
1045 78.33333333336469 6.874999999988923 0
1046 78.33333333337831 7.499999999988122 0
1047 78.33333333339193 8.124999999987988 0
1048 78.33333333340555 8.749999999989706 0
1049 78.33333333341918 9.374999999991422 0
1050 78.33333333343281 9.999999999993136 0
1051 78.33333333344643 10.62499999999485 0
1052 78.33333333346003 11.24999999999657 0
1053 78.33333333347365 11.87499999999828 0
1054 79.99999999990317 0.6249999999988628 0
1055 79.99999999991574 1.249999999997932 0
1056 79.99999999992829 1.874999999996668 0
1057 79.9999999999409 2.499999999994962 0
1058 79.99999999995346 3.124999999993253 0
1059 79.99999999996605 3.749999999991547 0
1060 79.99999999997863 4.374999999991036 0
1061 79.99999999999118 4.999999999990452 0
1062 80.00000000000377 5.624999999989634 0
1063 80.00000000001636 6.249999999988818 0
1064 80.00000000002891 6.874999999988 0
1065 80.0000000000415 7.499999999987182 0
1066 80.00000000005409 8.124999999987072 0
1067 80.00000000006666 8.749999999988921 0
1068 80.00000000007923 9.374999999990767 0
1069 80.00000000009179 9.999999999992614 0
1070 80.00000000010438 10.62499999999446 0
1071 80.00000000011697 11.24999999999631 0
1072 80.00000000012953 11.87499999999815 0
1073 81.66666666657793 0.6249999999987465 0
1074 81.66666666658944 1.249999999997704 0
1075 81.66666666660096 1.874999999996321 0
1076 81.66666666661251 2.499999999994486 0
1077 81.66666666662403 3.12499999999265 0
1078 81.66666666663554 3.749999999990817 0
1079 81.66666666664706 4.374999999990201 0
1080 81.66666666665859 4.999999999989582 0
1081 81.66666666667013 5.624999999988749 0
1082 81.66666666668166 6.249999999987914 0
1083 81.6666666666932 6.874999999987079 0
1084 81.66666666670471 7.499999999986244 0
1085 81.66666666671625 8.124999999986155 0
1086 81.66666666672776 8.749999999988132 0
1087 81.66666666673929 9.374999999990109 0
1088 81.66666666675084 9.999999999992088 0
1089 81.66666666676233 10.62499999999406 0
1090 81.66666666677386 11.24999999999604 0
1091 81.66666666678539 11.87499999999802 0
1092 83.33333333325265 0.6249999999986301 0
1093 83.33333333326311 1.249999999997476 0
1094 83.3333333332736 1.874999999995975 0
1095 83.33333333328409 2.499999999994012 0
1096 83.33333333329458 3.124999999992046 0
1097 83.33333333330504 3.749999999990086 0
1098 83.33333333331552 4.374999999989366 0
1099 83.33333333332601 4.99999999998871 0
1100 83.33333333333647 5.624999999987858 0
1101 83.33333333334696 6.249999999987009 0
1102 83.33333333335744 6.874999999986156 0
1103 83.33333333336793 7.499999999985302 0
1104 83.33333333337842 8.124999999985237 0
1105 83.33333333338888 8.749999999987347 0
1106 83.33333333339937 9.374999999989454 0
1107 83.33333333340984 9.999999999991562 0
1108 83.33333333342031 10.62499999999367 0
1109 83.3333333334308 11.24999999999578 0
1110 83.33333333344129 11.87499999999789 0
1111 84.99999999992738 0.6249999999985142 0
1112 84.9999999999368 1.249999999997248 0
1113 84.99999999994623 1.874999999995628 0
1114 84.99999999995571 2.499999999993535 0
1115 84.99999999996514 3.124999999991444 0
1116 84.99999999997456 3.749999999989353 0
1117 84.99999999998397 4.374999999988531 0
1118 84.99999999999342 4.999999999987841 0
1119 85.00000000000284 5.62499999998697 0
1120 85.00000000001228 6.249999999986102 0
1121 85.00000000002169 6.874999999985233 0
1122 85.00000000003112 7.499999999984365 0
1123 85.00000000004056 8.124999999984322 0
1124 85.00000000004999 8.749999999986562 0
1125 85.00000000005943 9.374999999988798 0
1126 85.00000000006887 9.99999999999104 0
1127 85.0000000000783 10.62499999999328 0
1128 85.00000000008772 11.24999999999552 0
1129 85.00000000009715 11.87499999999776 0
1130 86.66666666660214 0.624999999998398 0
1131 86.6666666666105 1.24999999999702 0
1132 86.6666666666189 1.874999999995281 0
1133 86.66666666662727 2.499999999993061 0
1134 86.66666666663564 3.124999999990841 0
1135 86.66666666664403 3.749999999988623 0
1136 86.66666666665242 4.374999999987698 0
1137 86.6666666666608 4.999999999986969 0
1138 86.66666666666919 5.624999999986084 0
1139 86.66666666667757 6.249999999985196 0
1140 86.66666666668596 6.874999999984311 0
1141 86.66666666669434 7.499999999983426 0
1142 86.66666666670272 8.124999999983404 0
1143 86.66666666671111 8.749999999985779 0
1144 86.66666666671949 9.374999999988145 0
1145 86.66666666672788 9.99999999999052 0
1146 86.66666666673622 10.62499999999289 0
1147 86.66666666674465 11.24999999999526 0
1148 86.66666666675303 11.87499999999763 0
1149 88.33333333327686 0.6249999999982815 0
1150 88.33333333328417 1.249999999996792 0
1151 88.33333333329151 1.874999999994934 0
1152 88.33333333329884 2.499999999992586 0
1153 88.3333333333062 3.124999999990238 0
1154 88.33333333331353 3.749999999987892 0
1155 88.33333333332087 4.374999999986863 0
1156 88.3333333333282 4.999999999986096 0
1157 88.33333333333556 5.624999999985195 0
1158 88.33333333334289 6.249999999984291 0
1159 88.33333333335023 6.874999999983389 0
1160 88.33333333335756 7.499999999982485 0
1161 88.33333333336489 8.124999999982487 0
1162 88.33333333337222 8.749999999984992 0
1163 88.33333333337956 9.374999999987493 0
1164 88.33333333338689 9.999999999989992 0
1165 88.33333333339422 10.62499999999249 0
1166 88.33333333340157 11.249999999995 0
1167 88.33333333340889 11.8749999999975 0
1168 89.99999999995158 0.6249999999981654 0
1169 89.99999999995788 1.249999999996564 0
1170 89.99999999996413 1.874999999994587 0
1171 89.99999999997043 2.499999999992111 0
1172 89.99999999997672 3.124999999989634 0
1173 89.99999999998302 3.74999999998716 0
1174 89.99999999998931 4.374999999986029 0
1175 89.9999999999956 4.999999999985226 0
1176 90.00000000000189 5.624999999984308 0
1177 90.0000000000082 6.249999999983388 0
1178 90.00000000001448 6.874999999982467 0
1179 90.00000000002076 7.499999999981548 0
1180 90.00000000002706 8.124999999981569 0
1181 90.00000000003332 8.749999999984203 0
1182 90.00000000003963 9.374999999986837 0
1183 90.0000000000459 9.99999999998947 0
1184 90.0000000000522 10.6249999999921 0
1185 90.00000000005849 11.24999999999474 0
1186 90.00000000006476 11.87499999999737 0
1187 91.66666666662634 0.6249999999980492 0
1188 91.66666666663157 1.249999999996335 0
1189 91.66666666663681 1.87499999999424 0
1190 91.66666666664202 2.499999999991637 0
1191 91.66666666664727 3.124999999989032 0
1192 91.6666666666525 3.74999999998643 0
1193 91.66666666665776 4.374999999985194 0
1194 91.66666666666302 4.999999999984356 0
1195 91.66666666666822 5.624999999983419 0
1196 91.66666666667345 6.249999999982482 0
1197 91.66666666667871 6.874999999981545 0
1198 91.66666666668394 7.499999999980606 0
1199 91.66666666668921 8.124999999980652 0
1200 91.66666666669443 8.749999999983418 0
1201 91.66666666669968 9.374999999986178 0
1202 91.66666666670494 9.999999999988948 0
1203 91.66666666671019 10.62499999999171 0
1204 91.66666666671542 11.24999999999447 0
1205 91.66666666672063 11.87499999999724 0
1206 93.33333333330107 0.6249999999979329 0
1207 93.33333333330525 1.249999999996107 0
1208 93.33333333330943 1.874999999993894 0
1209 93.33333333331363 2.49999999999116 0
1210 93.33333333331781 3.124999999988428 0
1211 93.333333333322 3.749999999985699 0
1212 93.33333333332618 4.374999999984359 0
1213 93.3333333333304 4.999999999983485 0
1214 93.33333333333458 5.62499999998253 0
1215 93.33333333333879 6.249999999981577 0
1216 93.33333333334299 6.874999999980622 0
1217 93.33333333334716 7.499999999979668 0
1218 93.33333333335136 8.124999999979735 0
1219 93.33333333335554 8.749999999982633 0
1220 93.33333333335976 9.374999999985525 0
1221 93.33333333336393 9.999999999988422 0
1222 93.33333333336816 10.62499999999132 0
1223 93.33333333337232 11.24999999999421 0
1224 93.33333333337653 11.8749999999971 0
1225 94.99999999997577 0.6249999999978168 0
1226 94.99999999997893 1.249999999995879 0
1227 94.99999999998211 1.874999999993546 0
1228 94.99999999998522 2.499999999990686 0
1229 94.99999999998836 3.124999999987825 0
1230 94.9999999999915 3.749999999984966 0
1231 94.99999999999467 4.374999999983525 0
1232 94.99999999999781 4.999999999982615 0
1233 95.00000000000097 5.624999999981643 0
1234 95.00000000000408 6.249999999980672 0
1235 95.00000000000725 6.874999999979703 0
1236 95.0000000000104 7.499999999978732 0
1237 95.00000000001354 8.124999999978819 0
1238 95.00000000001668 8.749999999981849 0
1239 95.00000000001981 9.374999999984871 0
1240 95.00000000002297 9.999999999987898 0
1241 95.00000000002611 10.62499999999092 0
1242 95.00000000002923 11.24999999999395 0
1243 95.00000000003239 11.87499999999698 0
1244 96.66666666665053 0.6249999999977007 0
1245 96.66666666665262 1.249999999995652 0
1246 96.66666666665471 1.874999999993199 0
1247 96.66666666665682 2.499999999990211 0
1248 96.6666666666589 3.124999999987222 0
1249 96.666666666661 3.749999999984236 0
1250 96.6666666666631 4.37499999998269 0
1251 96.66666666666521 4.999999999981741 0
1252 96.66666666666731 5.624999999980755 0
1253 96.6666666666694 6.249999999979766 0
1254 96.6666666666715 6.874999999978778 0
1255 96.66666666667358 7.499999999977789 0
1256 96.6666666666757 8.124999999977902 0
1257 96.66666666667778 8.749999999981062 0
1258 96.66666666667987 9.374999999984215 0
1259 96.66666666668199 9.999999999987374 0
1260 96.66666666668407 10.62499999999053 0
1261 96.66666666668617 11.24999999999369 0
1262 96.66666666668824 11.87499999999684 0
1263 98.33333333332527 0.6249999999975843 0
1264 98.33333333332632 1.249999999995423 0
1265 98.33333333332733 1.874999999992852 0
1266 98.33333333332841 2.499999999989736 0
1267 98.33333333332945 3.124999999986618 0
1268 98.33333333333049 3.749999999983504 0
1269 98.33333333333155 4.374999999981857 0
1270 98.3333333333326 4.99999999998087 0
1271 98.33333333333366 5.624999999979867 0
1272 98.33333333333471 6.249999999978861 0
1273 98.33333333333576 6.874999999977855 0
1274 98.33333333333681 7.499999999976851 0
1275 98.33333333333786 8.124999999976986 0
1276 98.33333333333889 8.749999999980274 0
1277 98.33333333333994 9.374999999983563 0
1278 98.33333333334099 9.999999999986851 0
1279 98.33333333334203 10.62499999999014 0
1280 98.33333333334309 11.24999999999342 0
1281 98.3333333333441 11.87499999999671 0
$EndNodes
$Elements
1340
1 1 2 1 1 1 5
2 1 2 1 1 5 6
3 1 2 1 1 6 7
4 1 2 1 1 7 8
5 1 2 1 1 8 9
6 1 2 1 1 9 10
7 1 2 1 1 10 11
8 1 2 1 1 11 12
9 1 2 1 1 12 13
10 1 2 1 1 13 14
11 1 2 1 1 14 15
12 1 2 1 1 15 16
13 1 2 1 1 16 17
14 1 2 1 1 17 18
15 1 2 1 1 18 19
16 1 2 1 1 19 20
17 1 2 1 1 20 21
18 1 2 1 1 21 22
19 1 2 1 1 22 23
20 1 2 1 1 23 24
21 1 2 1 1 24 25
22 1 2 1 1 25 26
23 1 2 1 1 26 27
24 1 2 1 1 27 28
25 1 2 1 1 28 29
26 1 2 1 1 29 30
27 1 2 1 1 30 31
28 1 2 1 1 31 32
29 1 2 1 1 32 33
30 1 2 1 1 33 34
31 1 2 1 1 34 35
32 1 2 1 1 35 36
33 1 2 1 1 36 37
34 1 2 1 1 37 38
35 1 2 1 1 38 39
36 1 2 1 1 39 40
37 1 2 1 1 40 41
38 1 2 1 1 41 42
39 1 2 1 1 42 43
40 1 2 1 1 43 44
41 1 2 1 1 44 45
42 1 2 1 1 45 46
43 1 2 1 1 46 47
44 1 2 1 1 47 48
45 1 2 1 1 48 49
46 1 2 1 1 49 50
47 1 2 1 1 50 51
48 1 2 1 1 51 52
49 1 2 1 1 52 53
50 1 2 1 1 53 54
51 1 2 1 1 54 55
52 1 2 1 1 55 56
53 1 2 1 1 56 57
54 1 2 1 1 57 58
55 1 2 1 1 58 59
56 1 2 1 1 59 60
57 1 2 1 1 60 61
58 1 2 1 1 61 62
59 1 2 1 1 62 63
60 1 2 1 1 63 2
61 1 2 1 2 2 64
62 1 2 1 2 64 65
63 1 2 1 2 65 66
64 1 2 1 2 66 67
65 1 2 1 2 67 68
66 1 2 1 2 68 69
67 1 2 1 2 69 70
68 1 2 1 2 70 71
69 1 2 1 2 71 72
70 1 2 1 2 72 73
71 1 2 1 2 73 74
72 1 2 1 2 74 75
73 1 2 1 2 75 76
74 1 2 1 2 76 77
75 1 2 1 2 77 78
76 1 2 1 2 78 79
77 1 2 1 2 79 80
78 1 2 1 2 80 81
79 1 2 1 2 81 82
80 1 2 1 2 82 3
81 1 2 1 3 3 83
82 1 2 1 3 83 84
83 1 2 1 3 84 85
84 1 2 1 3 85 86
85 1 2 1 3 86 87
86 1 2 1 3 87 88
87 1 2 1 3 88 89
88 1 2 1 3 89 90
89 1 2 1 3 90 91
90 1 2 1 3 91 92
91 1 2 1 3 92 93
92 1 2 1 3 93 94
93 1 2 1 3 94 95
94 1 2 1 3 95 96
95 1 2 1 3 96 97
96 1 2 1 3 97 98
97 1 2 1 3 98 99
98 1 2 1 3 99 100
99 1 2 1 3 100 101
100 1 2 1 3 101 102
101 1 2 1 3 102 103
102 1 2 1 3 103 104
103 1 2 1 3 104 105
104 1 2 1 3 105 106
105 1 2 1 3 106 107
106 1 2 1 3 107 108
107 1 2 1 3 108 109
108 1 2 1 3 109 110
109 1 2 1 3 110 111
110 1 2 1 3 111 112
111 1 2 1 3 112 113
112 1 2 1 3 113 114
113 1 2 1 3 114 115
114 1 2 1 3 115 116
115 1 2 1 3 116 117
116 1 2 1 3 117 118
117 1 2 1 3 118 119
118 1 2 1 3 119 120
119 1 2 1 3 120 121
120 1 2 1 3 121 122
121 1 2 1 3 122 123
122 1 2 1 3 123 124
123 1 2 1 3 124 125
124 1 2 1 3 125 126
125 1 2 1 3 126 127
126 1 2 1 3 127 128
127 1 2 1 3 128 129
128 1 2 1 3 129 130
129 1 2 1 3 130 131
130 1 2 1 3 131 132
131 1 2 1 3 132 133
132 1 2 1 3 133 134
133 1 2 1 3 134 135
134 1 2 1 3 135 136
135 1 2 1 3 136 137
136 1 2 1 3 137 138
137 1 2 1 3 138 139
138 1 2 1 3 139 140
139 1 2 1 3 140 141
140 1 2 1 3 141 4
141 3 2 2 1 1 5 161 160
142 3 2 2 1 160 161 162 159
143 3 2 2 1 159 162 163 158
144 3 2 2 1 158 163 164 157
145 3 2 2 1 157 164 165 156
146 3 2 2 1 156 165 166 155
147 3 2 2 1 155 166 167 154
148 3 2 2 1 154 167 168 153
149 3 2 2 1 153 168 169 152
150 3 2 2 1 152 169 170 151
151 3 2 2 1 151 170 171 150
152 3 2 2 1 150 171 172 149
153 3 2 2 1 149 172 173 148
154 3 2 2 1 148 173 174 147
155 3 2 2 1 147 174 175 146
156 3 2 2 1 146 175 176 145
157 3 2 2 1 145 176 177 144
158 3 2 2 1 144 177 178 143
159 3 2 2 1 143 178 179 142
160 3 2 2 1 142 179 141 4
161 3 2 2 1 5 6 180 161
162 3 2 2 1 161 180 181 162
163 3 2 2 1 162 181 182 163
164 3 2 2 1 163 182 183 164
165 3 2 2 1 164 183 184 165
166 3 2 2 1 165 184 185 166
167 3 2 2 1 166 185 186 167
168 3 2 2 1 167 186 187 168
169 3 2 2 1 168 187 188 169
170 3 2 2 1 169 188 189 170
171 3 2 2 1 170 189 190 171
172 3 2 2 1 171 190 191 172
173 3 2 2 1 172 191 192 173
174 3 2 2 1 173 192 193 174
175 3 2 2 1 174 193 194 175
176 3 2 2 1 175 194 195 176
177 3 2 2 1 176 195 196 177
178 3 2 2 1 177 196 197 178
179 3 2 2 1 178 197 198 179
180 3 2 2 1 179 198 140 141
181 3 2 2 1 6 7 199 180
182 3 2 2 1 180 199 200 181
183 3 2 2 1 181 200 201 182
184 3 2 2 1 182 201 202 183
185 3 2 2 1 183 202 203 184
186 3 2 2 1 184 203 204 185
187 3 2 2 1 185 204 205 186
188 3 2 2 1 186 205 206 187
189 3 2 2 1 187 206 207 188
190 3 2 2 1 188 207 208 189
191 3 2 2 1 189 208 209 190
192 3 2 2 1 190 209 210 191
193 3 2 2 1 191 210 211 192
194 3 2 2 1 192 211 212 193
195 3 2 2 1 193 212 213 194
196 3 2 2 1 194 213 214 195
197 3 2 2 1 195 214 215 196
198 3 2 2 1 196 215 216 197
199 3 2 2 1 197 216 217 198
200 3 2 2 1 198 217 139 140
201 3 2 2 1 7 8 218 199
202 3 2 2 1 199 218 219 200
203 3 2 2 1 200 219 220 201
204 3 2 2 1 201 220 221 202
205 3 2 2 1 202 221 222 203
206 3 2 2 1 203 222 223 204
207 3 2 2 1 204 223 224 205
208 3 2 2 1 205 224 225 206
209 3 2 2 1 206 225 226 207
210 3 2 2 1 207 226 227 208
211 3 2 2 1 208 227 228 209
212 3 2 2 1 209 228 229 210
213 3 2 2 1 210 229 230 211
214 3 2 2 1 211 230 231 212
215 3 2 2 1 212 231 232 213
216 3 2 2 1 213 232 233 214
217 3 2 2 1 214 233 234 215
218 3 2 2 1 215 234 235 216
219 3 2 2 1 216 235 236 217
220 3 2 2 1 217 236 138 139
221 3 2 2 1 8 9 237 218
222 3 2 2 1 218 237 238 219
223 3 2 2 1 219 238 239 220
224 3 2 2 1 220 239 240 221
225 3 2 2 1 221 240 241 222
226 3 2 2 1 222 241 242 223
227 3 2 2 1 223 242 243 224
228 3 2 2 1 224 243 244 225
229 3 2 2 1 225 244 245 226
230 3 2 2 1 226 245 246 227
231 3 2 2 1 227 246 247 228
232 3 2 2 1 228 247 248 229
233 3 2 2 1 229 248 249 230
234 3 2 2 1 230 249 250 231
235 3 2 2 1 231 250 251 232
236 3 2 2 1 232 251 252 233
237 3 2 2 1 233 252 253 234
238 3 2 2 1 234 253 254 235
239 3 2 2 1 235 254 255 236
240 3 2 2 1 236 255 137 138
241 3 2 2 1 9 10 256 237
242 3 2 2 1 237 256 257 238
243 3 2 2 1 238 257 258 239
244 3 2 2 1 239 258 259 240
245 3 2 2 1 240 259 260 241
246 3 2 2 1 241 260 261 242
247 3 2 2 1 242 261 262 243
248 3 2 2 1 243 262 263 244
249 3 2 2 1 244 263 264 245
250 3 2 2 1 245 264 265 246
251 3 2 2 1 246 265 266 247
252 3 2 2 1 247 266 267 248
253 3 2 2 1 248 267 268 249
254 3 2 2 1 249 268 269 250
255 3 2 2 1 250 269 270 251
256 3 2 2 1 251 270 271 252
257 3 2 2 1 252 271 272 253
258 3 2 2 1 253 272 273 254
259 3 2 2 1 254 273 274 255
260 3 2 2 1 255 274 136 137
261 3 2 2 1 10 11 275 256
262 3 2 2 1 256 275 276 257
263 3 2 2 1 257 276 277 258
264 3 2 2 1 258 277 278 259
265 3 2 2 1 259 278 279 260
266 3 2 2 1 260 279 280 261
267 3 2 2 1 261 280 281 262
268 3 2 2 1 262 281 282 263
269 3 2 2 1 263 282 283 264
270 3 2 2 1 264 283 284 265
271 3 2 2 1 265 284 285 266
272 3 2 2 1 266 285 286 267
273 3 2 2 1 267 286 287 268
274 3 2 2 1 268 287 288 269
275 3 2 2 1 269 288 289 270
276 3 2 2 1 270 289 290 271
277 3 2 2 1 271 290 291 272
278 3 2 2 1 272 291 292 273
279 3 2 2 1 273 292 293 274
280 3 2 2 1 274 293 135 136
281 3 2 2 1 11 12 294 275
282 3 2 2 1 275 294 295 276
283 3 2 2 1 276 295 296 277
284 3 2 2 1 277 296 297 278
285 3 2 2 1 278 297 298 279
286 3 2 2 1 279 298 299 280
287 3 2 2 1 280 299 300 281
288 3 2 2 1 281 300 301 282
289 3 2 2 1 282 301 302 283
290 3 2 2 1 283 302 303 284
291 3 2 2 1 284 303 304 285
292 3 2 2 1 285 304 305 286
293 3 2 2 1 286 305 306 287
294 3 2 2 1 287 306 307 288
295 3 2 2 1 288 307 308 289
296 3 2 2 1 289 308 309 290
297 3 2 2 1 290 309 310 291
298 3 2 2 1 291 310 311 292
299 3 2 2 1 292 311 312 293
300 3 2 2 1 293 312 134 135
301 3 2 2 1 12 13 313 294
302 3 2 2 1 294 313 314 295
303 3 2 2 1 295 314 315 296
304 3 2 2 1 296 315 316 297
305 3 2 2 1 297 316 317 298
306 3 2 2 1 298 317 318 299
307 3 2 2 1 299 318 319 300
308 3 2 2 1 300 319 320 301
309 3 2 2 1 301 320 321 302
310 3 2 2 1 302 321 322 303
311 3 2 2 1 303 322 323 304
312 3 2 2 1 304 323 324 305
313 3 2 2 1 305 324 325 306
314 3 2 2 1 306 325 326 307
315 3 2 2 1 307 326 327 308
316 3 2 2 1 308 327 328 309
317 3 2 2 1 309 328 329 310
318 3 2 2 1 310 329 330 311
319 3 2 2 1 311 330 331 312
320 3 2 2 1 312 331 133 134
321 3 2 2 1 13 14 332 313
322 3 2 2 1 313 332 333 314
323 3 2 2 1 314 333 334 315
324 3 2 2 1 315 334 335 316
325 3 2 2 1 316 335 336 317
326 3 2 2 1 317 336 337 318
327 3 2 2 1 318 337 338 319
328 3 2 2 1 319 338 339 320
329 3 2 2 1 320 339 340 321
330 3 2 2 1 321 340 341 322
331 3 2 2 1 322 341 342 323
332 3 2 2 1 323 342 343 324
333 3 2 2 1 324 343 344 325
334 3 2 2 1 325 344 345 326
335 3 2 2 1 326 345 346 327
336 3 2 2 1 327 346 347 328
337 3 2 2 1 328 347 348 329
338 3 2 2 1 329 348 349 330
339 3 2 2 1 330 349 350 331
340 3 2 2 1 331 350 132 133
341 3 2 2 1 14 15 351 332
342 3 2 2 1 332 351 352 333
343 3 2 2 1 333 352 353 334
344 3 2 2 1 334 353 354 335
345 3 2 2 1 335 354 355 336
346 3 2 2 1 336 355 356 337
347 3 2 2 1 337 356 357 338
348 3 2 2 1 338 357 358 339
349 3 2 2 1 339 358 359 340
350 3 2 2 1 340 359 360 341
351 3 2 2 1 341 360 361 342
352 3 2 2 1 342 361 362 343
353 3 2 2 1 343 362 363 344
354 3 2 2 1 344 363 364 345
355 3 2 2 1 345 364 365 346
356 3 2 2 1 346 365 366 347
357 3 2 2 1 347 366 367 348
358 3 2 2 1 348 367 368 349
359 3 2 2 1 349 368 369 350
360 3 2 2 1 350 369 131 132
361 3 2 2 1 15 16 370 351
362 3 2 2 1 351 370 371 352
363 3 2 2 1 352 371 372 353
364 3 2 2 1 353 372 373 354
365 3 2 2 1 354 373 374 355
366 3 2 2 1 355 374 375 356
367 3 2 2 1 356 375 376 357
368 3 2 2 1 357 376 377 358
369 3 2 2 1 358 377 378 359
370 3 2 2 1 359 378 379 360
371 3 2 2 1 360 379 380 361
372 3 2 2 1 361 380 381 362
373 3 2 2 1 362 381 382 363
374 3 2 2 1 363 382 383 364
375 3 2 2 1 364 383 384 365
376 3 2 2 1 365 384 385 366
377 3 2 2 1 366 385 386 367
378 3 2 2 1 367 386 387 368
379 3 2 2 1 368 387 388 369
380 3 2 2 1 369 388 130 131
381 3 2 2 1 16 17 389 370
382 3 2 2 1 370 389 390 371
383 3 2 2 1 371 390 391 372
384 3 2 2 1 372 391 392 373
385 3 2 2 1 373 392 393 374
386 3 2 2 1 374 393 394 375
387 3 2 2 1 375 394 395 376
388 3 2 2 1 376 395 396 377
389 3 2 2 1 377 396 397 378
390 3 2 2 1 378 397 398 379
391 3 2 2 1 379 398 399 380
392 3 2 2 1 380 399 400 381
393 3 2 2 1 381 400 401 382
394 3 2 2 1 382 401 402 383
395 3 2 2 1 383 402 403 384
396 3 2 2 1 384 403 404 385
397 3 2 2 1 385 404 405 386
398 3 2 2 1 386 405 406 387
399 3 2 2 1 387 406 407 388
400 3 2 2 1 388 407 129 130
401 3 2 2 1 17 18 408 389
402 3 2 2 1 389 408 409 390
403 3 2 2 1 390 409 410 391
404 3 2 2 1 391 410 411 392
405 3 2 2 1 392 411 412 393
406 3 2 2 1 393 412 413 394
407 3 2 2 1 394 413 414 395
408 3 2 2 1 395 414 415 396
409 3 2 2 1 396 415 416 397
410 3 2 2 1 397 416 417 398
411 3 2 2 1 398 417 418 399
412 3 2 2 1 399 418 419 400
413 3 2 2 1 400 419 420 401
414 3 2 2 1 401 420 421 402
415 3 2 2 1 402 421 422 403
416 3 2 2 1 403 422 423 404
417 3 2 2 1 404 423 424 405
418 3 2 2 1 405 424 425 406
419 3 2 2 1 406 425 426 407
420 3 2 2 1 407 426 128 129
421 3 2 2 1 18 19 427 408
422 3 2 2 1 408 427 428 409
423 3 2 2 1 409 428 429 410
424 3 2 2 1 410 429 430 411
425 3 2 2 1 411 430 431 412
426 3 2 2 1 412 431 432 413
427 3 2 2 1 413 432 433 414
428 3 2 2 1 414 433 434 415
429 3 2 2 1 415 434 435 416
430 3 2 2 1 416 435 436 417
431 3 2 2 1 417 436 437 418
432 3 2 2 1 418 437 438 419
433 3 2 2 1 419 438 439 420
434 3 2 2 1 420 439 440 421
435 3 2 2 1 421 440 441 422
436 3 2 2 1 422 441 442 423
437 3 2 2 1 423 442 443 424
438 3 2 2 1 424 443 444 425
439 3 2 2 1 425 444 445 426
440 3 2 2 1 426 445 127 128
441 3 2 2 1 19 20 446 427
442 3 2 2 1 427 446 447 428
443 3 2 2 1 428 447 448 429
444 3 2 2 1 429 448 449 430
445 3 2 2 1 430 449 450 431
446 3 2 2 1 431 450 451 432
447 3 2 2 1 432 451 452 433
448 3 2 2 1 433 452 453 434
449 3 2 2 1 434 453 454 435
450 3 2 2 1 435 454 455 436
451 3 2 2 1 436 455 456 437
452 3 2 2 1 437 456 457 438
453 3 2 2 1 438 457 458 439
454 3 2 2 1 439 458 459 440
455 3 2 2 1 440 459 460 441
456 3 2 2 1 441 460 461 442
457 3 2 2 1 442 461 462 443
458 3 2 2 1 443 462 463 444
459 3 2 2 1 444 463 464 445
460 3 2 2 1 445 464 126 127
461 3 2 2 1 20 21 465 446
462 3 2 2 1 446 465 466 447
463 3 2 2 1 447 466 467 448
464 3 2 2 1 448 467 468 449
465 3 2 2 1 449 468 469 450
466 3 2 2 1 450 469 470 451
467 3 2 2 1 451 470 471 452
468 3 2 2 1 452 471 472 453
469 3 2 2 1 453 472 473 454
470 3 2 2 1 454 473 474 455
471 3 2 2 1 455 474 475 456
472 3 2 2 1 456 475 476 457
473 3 2 2 1 457 476 477 458
474 3 2 2 1 458 477 478 459
475 3 2 2 1 459 478 479 460
476 3 2 2 1 460 479 480 461
477 3 2 2 1 461 480 481 462
478 3 2 2 1 462 481 482 463
479 3 2 2 1 463 482 483 464
480 3 2 2 1 464 483 125 126
481 3 2 2 1 21 22 484 465
482 3 2 2 1 465 484 485 466
483 3 2 2 1 466 485 486 467
484 3 2 2 1 467 486 487 468
485 3 2 2 1 468 487 488 469
486 3 2 2 1 469 488 489 470
487 3 2 2 1 470 489 490 471
488 3 2 2 1 471 490 491 472
489 3 2 2 1 472 491 492 473
490 3 2 2 1 473 492 493 474
491 3 2 2 1 474 493 494 475
492 3 2 2 1 475 494 495 476
493 3 2 2 1 476 495 496 477
494 3 2 2 1 477 496 497 478
495 3 2 2 1 478 497 498 479
496 3 2 2 1 479 498 499 480
497 3 2 2 1 480 499 500 481
498 3 2 2 1 481 500 501 482
499 3 2 2 1 482 501 502 483
500 3 2 2 1 483 502 124 125
501 3 2 2 1 22 23 503 484
502 3 2 2 1 484 503 504 485
503 3 2 2 1 485 504 505 486
504 3 2 2 1 486 505 506 487
505 3 2 2 1 487 506 507 488
506 3 2 2 1 488 507 508 489
507 3 2 2 1 489 508 509 490
508 3 2 2 1 490 509 510 491
509 3 2 2 1 491 510 511 492
510 3 2 2 1 492 511 512 493
511 3 2 2 1 493 512 513 494
512 3 2 2 1 494 513 514 495
513 3 2 2 1 495 514 515 496
514 3 2 2 1 496 515 516 497
515 3 2 2 1 497 516 517 498
516 3 2 2 1 498 517 518 499
517 3 2 2 1 499 518 519 500
518 3 2 2 1 500 519 520 501
519 3 2 2 1 501 520 521 502
520 3 2 2 1 502 521 123 124
521 3 2 2 1 23 24 522 503
522 3 2 2 1 503 522 523 504
523 3 2 2 1 504 523 524 505
524 3 2 2 1 505 524 525 506
525 3 2 2 1 506 525 526 507
526 3 2 2 1 507 526 527 508
527 3 2 2 1 508 527 528 509
528 3 2 2 1 509 528 529 510
529 3 2 2 1 510 529 530 511
530 3 2 2 1 511 530 531 512
531 3 2 2 1 512 531 532 513
532 3 2 2 1 513 532 533 514
533 3 2 2 1 514 533 534 515
534 3 2 2 1 515 534 535 516
535 3 2 2 1 516 535 536 517
536 3 2 2 1 517 536 537 518
537 3 2 2 1 518 537 538 519
538 3 2 2 1 519 538 539 520
539 3 2 2 1 520 539 540 521
540 3 2 2 1 521 540 122 123
541 3 2 2 1 24 25 541 522
542 3 2 2 1 522 541 542 523
543 3 2 2 1 523 542 543 524
544 3 2 2 1 524 543 544 525
545 3 2 2 1 525 544 545 526
546 3 2 2 1 526 545 546 527
547 3 2 2 1 527 546 547 528
548 3 2 2 1 528 547 548 529
549 3 2 2 1 529 548 549 530
550 3 2 2 1 530 549 550 531
551 3 2 2 1 531 550 551 532
552 3 2 2 1 532 551 552 533
553 3 2 2 1 533 552 553 534
554 3 2 2 1 534 553 554 535
555 3 2 2 1 535 554 555 536
556 3 2 2 1 536 555 556 537
557 3 2 2 1 537 556 557 538
558 3 2 2 1 538 557 558 539
559 3 2 2 1 539 558 559 540
560 3 2 2 1 540 559 121 122
561 3 2 2 1 25 26 560 541
562 3 2 2 1 541 560 561 542
563 3 2 2 1 542 561 562 543
564 3 2 2 1 543 562 563 544
565 3 2 2 1 544 563 564 545
566 3 2 2 1 545 564 565 546
567 3 2 2 1 546 565 566 547
568 3 2 2 1 547 566 567 548
569 3 2 2 1 548 567 568 549
570 3 2 2 1 549 568 569 550
571 3 2 2 1 550 569 570 551
572 3 2 2 1 551 570 571 552
573 3 2 2 1 552 571 572 553
574 3 2 2 1 553 572 573 554
575 3 2 2 1 554 573 574 555
576 3 2 2 1 555 574 575 556
577 3 2 2 1 556 575 576 557
578 3 2 2 1 557 576 577 558
579 3 2 2 1 558 577 578 559
580 3 2 2 1 559 578 120 121
581 3 2 2 1 26 27 579 560
582 3 2 2 1 560 579 580 561
583 3 2 2 1 561 580 581 562
584 3 2 2 1 562 581 582 563
585 3 2 2 1 563 582 583 564
586 3 2 2 1 564 583 584 565
587 3 2 2 1 565 584 585 566
588 3 2 2 1 566 585 586 567
589 3 2 2 1 567 586 587 568
590 3 2 2 1 568 587 588 569
591 3 2 2 1 569 588 589 570
592 3 2 2 1 570 589 590 571
593 3 2 2 1 571 590 591 572
594 3 2 2 1 572 591 592 573
595 3 2 2 1 573 592 593 574
596 3 2 2 1 574 593 594 575
597 3 2 2 1 575 594 595 576
598 3 2 2 1 576 595 596 577
599 3 2 2 1 577 596 597 578
600 3 2 2 1 578 597 119 120
601 3 2 2 1 27 28 598 579
602 3 2 2 1 579 598 599 580
603 3 2 2 1 580 599 600 581
604 3 2 2 1 581 600 601 582
605 3 2 2 1 582 601 602 583
606 3 2 2 1 583 602 603 584
607 3 2 2 1 584 603 604 585
608 3 2 2 1 585 604 605 586
609 3 2 2 1 586 605 606 587
610 3 2 2 1 587 606 607 588
611 3 2 2 1 588 607 608 589
612 3 2 2 1 589 608 609 590
613 3 2 2 1 590 609 610 591
614 3 2 2 1 591 610 611 592
615 3 2 2 1 592 611 612 593
616 3 2 2 1 593 612 613 594
617 3 2 2 1 594 613 614 595
618 3 2 2 1 595 614 615 596
619 3 2 2 1 596 615 616 597
620 3 2 2 1 597 616 118 119
621 3 2 2 1 28 29 617 598
622 3 2 2 1 598 617 618 599
623 3 2 2 1 599 618 619 600
624 3 2 2 1 600 619 620 601
625 3 2 2 1 601 620 621 602
626 3 2 2 1 602 621 622 603
627 3 2 2 1 603 622 623 604
628 3 2 2 1 604 623 624 605
629 3 2 2 1 605 624 625 606
630 3 2 2 1 606 625 626 607
631 3 2 2 1 607 626 627 608
632 3 2 2 1 608 627 628 609
633 3 2 2 1 609 628 629 610
634 3 2 2 1 610 629 630 611
635 3 2 2 1 611 630 631 612
636 3 2 2 1 612 631 632 613
637 3 2 2 1 613 632 633 614
638 3 2 2 1 614 633 634 615
639 3 2 2 1 615 634 635 616
640 3 2 2 1 616 635 117 118
641 3 2 2 1 29 30 636 617
642 3 2 2 1 617 636 637 618
643 3 2 2 1 618 637 638 619
644 3 2 2 1 619 638 639 620
645 3 2 2 1 620 639 640 621
646 3 2 2 1 621 640 641 622
647 3 2 2 1 622 641 642 623
648 3 2 2 1 623 642 643 624
649 3 2 2 1 624 643 644 625
650 3 2 2 1 625 644 645 626
651 3 2 2 1 626 645 646 627
652 3 2 2 1 627 646 647 628
653 3 2 2 1 628 647 648 629
654 3 2 2 1 629 648 649 630
655 3 2 2 1 630 649 650 631
656 3 2 2 1 631 650 651 632
657 3 2 2 1 632 651 652 633
658 3 2 2 1 633 652 653 634
659 3 2 2 1 634 653 654 635
660 3 2 2 1 635 654 116 117
661 3 2 2 1 30 31 655 636
662 3 2 2 1 636 655 656 637
663 3 2 2 1 637 656 657 638
664 3 2 2 1 638 657 658 639
665 3 2 2 1 639 658 659 640
666 3 2 2 1 640 659 660 641
667 3 2 2 1 641 660 661 642
668 3 2 2 1 642 661 662 643
669 3 2 2 1 643 662 663 644
670 3 2 2 1 644 663 664 645
671 3 2 2 1 645 664 665 646
672 3 2 2 1 646 665 666 647
673 3 2 2 1 647 666 667 648
674 3 2 2 1 648 667 668 649
675 3 2 2 1 649 668 669 650
676 3 2 2 1 650 669 670 651
677 3 2 2 1 651 670 671 652
678 3 2 2 1 652 671 672 653
679 3 2 2 1 653 672 673 654
680 3 2 2 1 654 673 115 116
681 3 2 2 1 31 32 674 655
682 3 2 2 1 655 674 675 656
683 3 2 2 1 656 675 676 657
684 3 2 2 1 657 676 677 658
685 3 2 2 1 658 677 678 659
686 3 2 2 1 659 678 679 660
687 3 2 2 1 660 679 680 661
688 3 2 2 1 661 680 681 662
689 3 2 2 1 662 681 682 663
690 3 2 2 1 663 682 683 664
691 3 2 2 1 664 683 684 665
692 3 2 2 1 665 684 685 666
693 3 2 2 1 666 685 686 667
694 3 2 2 1 667 686 687 668
695 3 2 2 1 668 687 688 669
696 3 2 2 1 669 688 689 670
697 3 2 2 1 670 689 690 671
698 3 2 2 1 671 690 691 672
699 3 2 2 1 672 691 692 673
700 3 2 2 1 673 692 114 115
701 3 2 2 1 32 33 693 674
702 3 2 2 1 674 693 694 675
703 3 2 2 1 675 694 695 676
704 3 2 2 1 676 695 696 677
705 3 2 2 1 677 696 697 678
706 3 2 2 1 678 697 698 679
707 3 2 2 1 679 698 699 680
708 3 2 2 1 680 699 700 681
709 3 2 2 1 681 700 701 682
710 3 2 2 1 682 701 702 683
711 3 2 2 1 683 702 703 684
712 3 2 2 1 684 703 704 685
713 3 2 2 1 685 704 705 686
714 3 2 2 1 686 705 706 687
715 3 2 2 1 687 706 707 688
716 3 2 2 1 688 707 708 689
717 3 2 2 1 689 708 709 690
718 3 2 2 1 690 709 710 691
719 3 2 2 1 691 710 711 692
720 3 2 2 1 692 711 113 114
721 3 2 2 1 33 34 712 693
722 3 2 2 1 693 712 713 694
723 3 2 2 1 694 713 714 695
724 3 2 2 1 695 714 715 696
725 3 2 2 1 696 715 716 697
726 3 2 2 1 697 716 717 698
727 3 2 2 1 698 717 718 699
728 3 2 2 1 699 718 719 700
729 3 2 2 1 700 719 720 701
730 3 2 2 1 701 720 721 702
731 3 2 2 1 702 721 722 703
732 3 2 2 1 703 722 723 704
733 3 2 2 1 704 723 724 705
734 3 2 2 1 705 724 725 706
735 3 2 2 1 706 725 726 707
736 3 2 2 1 707 726 727 708
737 3 2 2 1 708 727 728 709
738 3 2 2 1 709 728 729 710
739 3 2 2 1 710 729 730 711
740 3 2 2 1 711 730 112 113
741 3 2 2 1 34 35 731 712
742 3 2 2 1 712 731 732 713
743 3 2 2 1 713 732 733 714
744 3 2 2 1 714 733 734 715
745 3 2 2 1 715 734 735 716
746 3 2 2 1 716 735 736 717
747 3 2 2 1 717 736 737 718
748 3 2 2 1 718 737 738 719
749 3 2 2 1 719 738 739 720
750 3 2 2 1 720 739 740 721
751 3 2 2 1 721 740 741 722
752 3 2 2 1 722 741 742 723
753 3 2 2 1 723 742 743 724
754 3 2 2 1 724 743 744 725
755 3 2 2 1 725 744 745 726
756 3 2 2 1 726 745 746 727
757 3 2 2 1 727 746 747 728
758 3 2 2 1 728 747 748 729
759 3 2 2 1 729 748 749 730
760 3 2 2 1 730 749 111 112
761 3 2 2 1 35 36 750 731
762 3 2 2 1 731 750 751 732
763 3 2 2 1 732 751 752 733
764 3 2 2 1 733 752 753 734
765 3 2 2 1 734 753 754 735
766 3 2 2 1 735 754 755 736
767 3 2 2 1 736 755 756 737
768 3 2 2 1 737 756 757 738
769 3 2 2 1 738 757 758 739
770 3 2 2 1 739 758 759 740
771 3 2 2 1 740 759 760 741
772 3 2 2 1 741 760 761 742
773 3 2 2 1 742 761 762 743
774 3 2 2 1 743 762 763 744
775 3 2 2 1 744 763 764 745
776 3 2 2 1 745 764 765 746
777 3 2 2 1 746 765 766 747
778 3 2 2 1 747 766 767 748
779 3 2 2 1 748 767 768 749
780 3 2 2 1 749 768 110 111
781 3 2 2 1 36 37 769 750
782 3 2 2 1 750 769 770 751
783 3 2 2 1 751 770 771 752
784 3 2 2 1 752 771 772 753
785 3 2 2 1 753 772 773 754
786 3 2 2 1 754 773 774 755
787 3 2 2 1 755 774 775 756
788 3 2 2 1 756 775 776 757
789 3 2 2 1 757 776 777 758
790 3 2 2 1 758 777 778 759
791 3 2 2 1 759 778 779 760
792 3 2 2 1 760 779 780 761
793 3 2 2 1 761 780 781 762
794 3 2 2 1 762 781 782 763
795 3 2 2 1 763 782 783 764
796 3 2 2 1 764 783 784 765
797 3 2 2 1 765 784 785 766
798 3 2 2 1 766 785 786 767
799 3 2 2 1 767 786 787 768
800 3 2 2 1 768 787 109 110
801 3 2 2 1 37 38 788 769
802 3 2 2 1 769 788 789 770
803 3 2 2 1 770 789 790 771
804 3 2 2 1 771 790 791 772
805 3 2 2 1 772 791 792 773
806 3 2 2 1 773 792 793 774
807 3 2 2 1 774 793 794 775
808 3 2 2 1 775 794 795 776
809 3 2 2 1 776 795 796 777
810 3 2 2 1 777 796 797 778
811 3 2 2 1 778 797 798 779
812 3 2 2 1 779 798 799 780
813 3 2 2 1 780 799 800 781
814 3 2 2 1 781 800 801 782
815 3 2 2 1 782 801 802 783
816 3 2 2 1 783 802 803 784
817 3 2 2 1 784 803 804 785
818 3 2 2 1 785 804 805 786
819 3 2 2 1 786 805 806 787
820 3 2 2 1 787 806 108 109
821 3 2 2 1 38 39 807 788
822 3 2 2 1 788 807 808 789
823 3 2 2 1 789 808 809 790
824 3 2 2 1 790 809 810 791
825 3 2 2 1 791 810 811 792
826 3 2 2 1 792 811 812 793
827 3 2 2 1 793 812 813 794
828 3 2 2 1 794 813 814 795
829 3 2 2 1 795 814 815 796
830 3 2 2 1 796 815 816 797
831 3 2 2 1 797 816 817 798
832 3 2 2 1 798 817 818 799
833 3 2 2 1 799 818 819 800
834 3 2 2 1 800 819 820 801
835 3 2 2 1 801 820 821 802
836 3 2 2 1 802 821 822 803
837 3 2 2 1 803 822 823 804
838 3 2 2 1 804 823 824 805
839 3 2 2 1 805 824 825 806
840 3 2 2 1 806 825 107 108
841 3 2 2 1 39 40 826 807
842 3 2 2 1 807 826 827 808
843 3 2 2 1 808 827 828 809
844 3 2 2 1 809 828 829 810
845 3 2 2 1 810 829 830 811
846 3 2 2 1 811 830 831 812
847 3 2 2 1 812 831 832 813
848 3 2 2 1 813 832 833 814
849 3 2 2 1 814 833 834 815
850 3 2 2 1 815 834 835 816
851 3 2 2 1 816 835 836 817
852 3 2 2 1 817 836 837 818
853 3 2 2 1 818 837 838 819
854 3 2 2 1 819 838 839 820
855 3 2 2 1 820 839 840 821
856 3 2 2 1 821 840 841 822
857 3 2 2 1 822 841 842 823
858 3 2 2 1 823 842 843 824
859 3 2 2 1 824 843 844 825
860 3 2 2 1 825 844 106 107
861 3 2 2 1 40 41 845 826
862 3 2 2 1 826 845 846 827
863 3 2 2 1 827 846 847 828
864 3 2 2 1 828 847 848 829
865 3 2 2 1 829 848 849 830
866 3 2 2 1 830 849 850 831
867 3 2 2 1 831 850 851 832
868 3 2 2 1 832 851 852 833
869 3 2 2 1 833 852 853 834
870 3 2 2 1 834 853 854 835
871 3 2 2 1 835 854 855 836
872 3 2 2 1 836 855 856 837
873 3 2 2 1 837 856 857 838
874 3 2 2 1 838 857 858 839
875 3 2 2 1 839 858 859 840
876 3 2 2 1 840 859 860 841
877 3 2 2 1 841 860 861 842
878 3 2 2 1 842 861 862 843
879 3 2 2 1 843 862 863 844
880 3 2 2 1 844 863 105 106
881 3 2 2 1 41 42 864 845
882 3 2 2 1 845 864 865 846
883 3 2 2 1 846 865 866 847
884 3 2 2 1 847 866 867 848
885 3 2 2 1 848 867 868 849
886 3 2 2 1 849 868 869 850
887 3 2 2 1 850 869 870 851
888 3 2 2 1 851 870 871 852
889 3 2 2 1 852 871 872 853
890 3 2 2 1 853 872 873 854
891 3 2 2 1 854 873 874 855
892 3 2 2 1 855 874 875 856
893 3 2 2 1 856 875 876 857
894 3 2 2 1 857 876 877 858
895 3 2 2 1 858 877 878 859
896 3 2 2 1 859 878 879 860
897 3 2 2 1 860 879 880 861
898 3 2 2 1 861 880 881 862
899 3 2 2 1 862 881 882 863
900 3 2 2 1 863 882 104 105
901 3 2 2 1 42 43 883 864
902 3 2 2 1 864 883 884 865
903 3 2 2 1 865 884 885 866
904 3 2 2 1 866 885 886 867
905 3 2 2 1 867 886 887 868
906 3 2 2 1 868 887 888 869
907 3 2 2 1 869 888 889 870
908 3 2 2 1 870 889 890 871
909 3 2 2 1 871 890 891 872
910 3 2 2 1 872 891 892 873
911 3 2 2 1 873 892 893 874
912 3 2 2 1 874 893 894 875
913 3 2 2 1 875 894 895 876
914 3 2 2 1 876 895 896 877
915 3 2 2 1 877 896 897 878
916 3 2 2 1 878 897 898 879
917 3 2 2 1 879 898 899 880
918 3 2 2 1 880 899 900 881
919 3 2 2 1 881 900 901 882
920 3 2 2 1 882 901 103 104
921 3 2 2 1 43 44 902 883
922 3 2 2 1 883 902 903 884
923 3 2 2 1 884 903 904 885
924 3 2 2 1 885 904 905 886
925 3 2 2 1 886 905 906 887
926 3 2 2 1 887 906 907 888
927 3 2 2 1 888 907 908 889
928 3 2 2 1 889 908 909 890
929 3 2 2 1 890 909 910 891
930 3 2 2 1 891 910 911 892
931 3 2 2 1 892 911 912 893
932 3 2 2 1 893 912 913 894
933 3 2 2 1 894 913 914 895
934 3 2 2 1 895 914 915 896
935 3 2 2 1 896 915 916 897
936 3 2 2 1 897 916 917 898
937 3 2 2 1 898 917 918 899
938 3 2 2 1 899 918 919 900
939 3 2 2 1 900 919 920 901
940 3 2 2 1 901 920 102 103
941 3 2 2 1 44 45 921 902
942 3 2 2 1 902 921 922 903
943 3 2 2 1 903 922 923 904
944 3 2 2 1 904 923 924 905
945 3 2 2 1 905 924 925 906
946 3 2 2 1 906 925 926 907
947 3 2 2 1 907 926 927 908
948 3 2 2 1 908 927 928 909
949 3 2 2 1 909 928 929 910
950 3 2 2 1 910 929 930 911
951 3 2 2 1 911 930 931 912
952 3 2 2 1 912 931 932 913
953 3 2 2 1 913 932 933 914
954 3 2 2 1 914 933 934 915
955 3 2 2 1 915 934 935 916
956 3 2 2 1 916 935 936 917
957 3 2 2 1 917 936 937 918
958 3 2 2 1 918 937 938 919
959 3 2 2 1 919 938 939 920
960 3 2 2 1 920 939 101 102
961 3 2 2 1 45 46 940 921
962 3 2 2 1 921 940 941 922
963 3 2 2 1 922 941 942 923
964 3 2 2 1 923 942 943 924
965 3 2 2 1 924 943 944 925
966 3 2 2 1 925 944 945 926
967 3 2 2 1 926 945 946 927
968 3 2 2 1 927 946 947 928
969 3 2 2 1 928 947 948 929
970 3 2 2 1 929 948 949 930
971 3 2 2 1 930 949 950 931
972 3 2 2 1 931 950 951 932
973 3 2 2 1 932 951 952 933
974 3 2 2 1 933 952 953 934
975 3 2 2 1 934 953 954 935
976 3 2 2 1 935 954 955 936
977 3 2 2 1 936 955 956 937
978 3 2 2 1 937 956 957 938
979 3 2 2 1 938 957 958 939
980 3 2 2 1 939 958 100 101
981 3 2 2 1 46 47 959 940
982 3 2 2 1 940 959 960 941
983 3 2 2 1 941 960 961 942
984 3 2 2 1 942 961 962 943
985 3 2 2 1 943 962 963 944
986 3 2 2 1 944 963 964 945
987 3 2 2 1 945 964 965 946
988 3 2 2 1 946 965 966 947
989 3 2 2 1 947 966 967 948
990 3 2 2 1 948 967 968 949
991 3 2 2 1 949 968 969 950
992 3 2 2 1 950 969 970 951
993 3 2 2 1 951 970 971 952
994 3 2 2 1 952 971 972 953
995 3 2 2 1 953 972 973 954
996 3 2 2 1 954 973 974 955
997 3 2 2 1 955 974 975 956
998 3 2 2 1 956 975 976 957
999 3 2 2 1 957 976 977 958
1000 3 2 2 1 958 977 99 100
1001 3 2 2 1 47 48 978 959
1002 3 2 2 1 959 978 979 960
1003 3 2 2 1 960 979 980 961
1004 3 2 2 1 961 980 981 962
1005 3 2 2 1 962 981 982 963
1006 3 2 2 1 963 982 983 964
1007 3 2 2 1 964 983 984 965
1008 3 2 2 1 965 984 985 966
1009 3 2 2 1 966 985 986 967
1010 3 2 2 1 967 986 987 968
1011 3 2 2 1 968 987 988 969
1012 3 2 2 1 969 988 989 970
1013 3 2 2 1 970 989 990 971
1014 3 2 2 1 971 990 991 972
1015 3 2 2 1 972 991 992 973
1016 3 2 2 1 973 992 993 974
1017 3 2 2 1 974 993 994 975
1018 3 2 2 1 975 994 995 976
1019 3 2 2 1 976 995 996 977
1020 3 2 2 1 977 996 98 99
1021 3 2 2 1 48 49 997 978
1022 3 2 2 1 978 997 998 979
1023 3 2 2 1 979 998 999 980
1024 3 2 2 1 980 999 1000 981
1025 3 2 2 1 981 1000 1001 982
1026 3 2 2 1 982 1001 1002 983
1027 3 2 2 1 983 1002 1003 984
1028 3 2 2 1 984 1003 1004 985
1029 3 2 2 1 985 1004 1005 986
1030 3 2 2 1 986 1005 1006 987
1031 3 2 2 1 987 1006 1007 988
1032 3 2 2 1 988 1007 1008 989
1033 3 2 2 1 989 1008 1009 990
1034 3 2 2 1 990 1009 1010 991
1035 3 2 2 1 991 1010 1011 992
1036 3 2 2 1 992 1011 1012 993
1037 3 2 2 1 993 1012 1013 994
1038 3 2 2 1 994 1013 1014 995
1039 3 2 2 1 995 1014 1015 996
1040 3 2 2 1 996 1015 97 98
1041 3 2 2 1 49 50 1016 997
1042 3 2 2 1 997 1016 1017 998
1043 3 2 2 1 998 1017 1018 999
1044 3 2 2 1 999 1018 1019 1000
1045 3 2 2 1 1000 1019 1020 1001
1046 3 2 2 1 1001 1020 1021 1002
1047 3 2 2 1 1002 1021 1022 1003
1048 3 2 2 1 1003 1022 1023 1004
1049 3 2 2 1 1004 1023 1024 1005
1050 3 2 2 1 1005 1024 1025 1006
1051 3 2 2 1 1006 1025 1026 1007
1052 3 2 2 1 1007 1026 1027 1008
1053 3 2 2 1 1008 1027 1028 1009
1054 3 2 2 1 1009 1028 1029 1010
1055 3 2 2 1 1010 1029 1030 1011
1056 3 2 2 1 1011 1030 1031 1012
1057 3 2 2 1 1012 1031 1032 1013
1058 3 2 2 1 1013 1032 1033 1014
1059 3 2 2 1 1014 1033 1034 1015
1060 3 2 2 1 1015 1034 96 97
1061 3 2 2 1 50 51 1035 1016
1062 3 2 2 1 1016 1035 1036 1017
1063 3 2 2 1 1017 1036 1037 1018
1064 3 2 2 1 1018 1037 1038 1019
1065 3 2 2 1 1019 1038 1039 1020
1066 3 2 2 1 1020 1039 1040 1021
1067 3 2 2 1 1021 1040 1041 1022
1068 3 2 2 1 1022 1041 1042 1023
1069 3 2 2 1 1023 1042 1043 1024
1070 3 2 2 1 1024 1043 1044 1025
1071 3 2 2 1 1025 1044 1045 1026
1072 3 2 2 1 1026 1045 1046 1027
1073 3 2 2 1 1027 1046 1047 1028
1074 3 2 2 1 1028 1047 1048 1029
1075 3 2 2 1 1029 1048 1049 1030
1076 3 2 2 1 1030 1049 1050 1031
1077 3 2 2 1 1031 1050 1051 1032
1078 3 2 2 1 1032 1051 1052 1033
1079 3 2 2 1 1033 1052 1053 1034
1080 3 2 2 1 1034 1053 95 96
1081 3 2 2 1 51 52 1054 1035
1082 3 2 2 1 1035 1054 1055 1036
1083 3 2 2 1 1036 1055 1056 1037
1084 3 2 2 1 1037 1056 1057 1038
1085 3 2 2 1 1038 1057 1058 1039
1086 3 2 2 1 1039 1058 1059 1040
1087 3 2 2 1 1040 1059 1060 1041
1088 3 2 2 1 1041 1060 1061 1042
1089 3 2 2 1 1042 1061 1062 1043
1090 3 2 2 1 1043 1062 1063 1044
1091 3 2 2 1 1044 1063 1064 1045
1092 3 2 2 1 1045 1064 1065 1046
1093 3 2 2 1 1046 1065 1066 1047
1094 3 2 2 1 1047 1066 1067 1048
1095 3 2 2 1 1048 1067 1068 1049
1096 3 2 2 1 1049 1068 1069 1050
1097 3 2 2 1 1050 1069 1070 1051
1098 3 2 2 1 1051 1070 1071 1052
1099 3 2 2 1 1052 1071 1072 1053
1100 3 2 2 1 1053 1072 94 95
1101 3 2 2 1 52 53 1073 1054
1102 3 2 2 1 1054 1073 1074 1055
1103 3 2 2 1 1055 1074 1075 1056
1104 3 2 2 1 1056 1075 1076 1057
1105 3 2 2 1 1057 1076 1077 1058
1106 3 2 2 1 1058 1077 1078 1059
1107 3 2 2 1 1059 1078 1079 1060
1108 3 2 2 1 1060 1079 1080 1061
1109 3 2 2 1 1061 1080 1081 1062
1110 3 2 2 1 1062 1081 1082 1063
1111 3 2 2 1 1063 1082 1083 1064
1112 3 2 2 1 1064 1083 1084 1065
1113 3 2 2 1 1065 1084 1085 1066
1114 3 2 2 1 1066 1085 1086 1067
1115 3 2 2 1 1067 1086 1087 1068
1116 3 2 2 1 1068 1087 1088 1069
1117 3 2 2 1 1069 1088 1089 1070
1118 3 2 2 1 1070 1089 1090 1071
1119 3 2 2 1 1071 1090 1091 1072
1120 3 2 2 1 1072 1091 93 94
1121 3 2 2 1 53 54 1092 1073
1122 3 2 2 1 1073 1092 1093 1074
1123 3 2 2 1 1074 1093 1094 1075
1124 3 2 2 1 1075 1094 1095 1076
1125 3 2 2 1 1076 1095 1096 1077
1126 3 2 2 1 1077 1096 1097 1078
1127 3 2 2 1 1078 1097 1098 1079
1128 3 2 2 1 1079 1098 1099 1080
1129 3 2 2 1 1080 1099 1100 1081
1130 3 2 2 1 1081 1100 1101 1082
1131 3 2 2 1 1082 1101 1102 1083
1132 3 2 2 1 1083 1102 1103 1084
1133 3 2 2 1 1084 1103 1104 1085
1134 3 2 2 1 1085 1104 1105 1086
1135 3 2 2 1 1086 1105 1106 1087
1136 3 2 2 1 1087 1106 1107 1088
1137 3 2 2 1 1088 1107 1108 1089
1138 3 2 2 1 1089 1108 1109 1090
1139 3 2 2 1 1090 1109 1110 1091
1140 3 2 2 1 1091 1110 92 93
1141 3 2 2 1 54 55 1111 1092
1142 3 2 2 1 1092 1111 1112 1093
1143 3 2 2 1 1093 1112 1113 1094
1144 3 2 2 1 1094 1113 1114 1095
1145 3 2 2 1 1095 1114 1115 1096
1146 3 2 2 1 1096 1115 1116 1097
1147 3 2 2 1 1097 1116 1117 1098
1148 3 2 2 1 1098 1117 1118 1099
1149 3 2 2 1 1099 1118 1119 1100
1150 3 2 2 1 1100 1119 1120 1101
1151 3 2 2 1 1101 1120 1121 1102
1152 3 2 2 1 1102 1121 1122 1103
1153 3 2 2 1 1103 1122 1123 1104
1154 3 2 2 1 1104 1123 1124 1105
1155 3 2 2 1 1105 1124 1125 1106
1156 3 2 2 1 1106 1125 1126 1107
1157 3 2 2 1 1107 1126 1127 1108
1158 3 2 2 1 1108 1127 1128 1109
1159 3 2 2 1 1109 1128 1129 1110
1160 3 2 2 1 1110 1129 91 92
1161 3 2 2 1 55 56 1130 1111
1162 3 2 2 1 1111 1130 1131 1112
1163 3 2 2 1 1112 1131 1132 1113
1164 3 2 2 1 1113 1132 1133 1114
1165 3 2 2 1 1114 1133 1134 1115
1166 3 2 2 1 1115 1134 1135 1116
1167 3 2 2 1 1116 1135 1136 1117
1168 3 2 2 1 1117 1136 1137 1118
1169 3 2 2 1 1118 1137 1138 1119
1170 3 2 2 1 1119 1138 1139 1120
1171 3 2 2 1 1120 1139 1140 1121
1172 3 2 2 1 1121 1140 1141 1122
1173 3 2 2 1 1122 1141 1142 1123
1174 3 2 2 1 1123 1142 1143 1124
1175 3 2 2 1 1124 1143 1144 1125
1176 3 2 2 1 1125 1144 1145 1126
1177 3 2 2 1 1126 1145 1146 1127
1178 3 2 2 1 1127 1146 1147 1128
1179 3 2 2 1 1128 1147 1148 1129
1180 3 2 2 1 1129 1148 90 91
1181 3 2 2 1 56 57 1149 1130
1182 3 2 2 1 1130 1149 1150 1131
1183 3 2 2 1 1131 1150 1151 1132
1184 3 2 2 1 1132 1151 1152 1133
1185 3 2 2 1 1133 1152 1153 1134
1186 3 2 2 1 1134 1153 1154 1135
1187 3 2 2 1 1135 1154 1155 1136
1188 3 2 2 1 1136 1155 1156 1137
1189 3 2 2 1 1137 1156 1157 1138
1190 3 2 2 1 1138 1157 1158 1139
1191 3 2 2 1 1139 1158 1159 1140
1192 3 2 2 1 1140 1159 1160 1141
1193 3 2 2 1 1141 1160 1161 1142
1194 3 2 2 1 1142 1161 1162 1143
1195 3 2 2 1 1143 1162 1163 1144
1196 3 2 2 1 1144 1163 1164 1145
1197 3 2 2 1 1145 1164 1165 1146
1198 3 2 2 1 1146 1165 1166 1147
1199 3 2 2 1 1147 1166 1167 1148
1200 3 2 2 1 1148 1167 89 90
1201 3 2 2 1 57 58 1168 1149
1202 3 2 2 1 1149 1168 1169 1150
1203 3 2 2 1 1150 1169 1170 1151
1204 3 2 2 1 1151 1170 1171 1152
1205 3 2 2 1 1152 1171 1172 1153
1206 3 2 2 1 1153 1172 1173 1154
1207 3 2 2 1 1154 1173 1174 1155
1208 3 2 2 1 1155 1174 1175 1156
1209 3 2 2 1 1156 1175 1176 1157
1210 3 2 2 1 1157 1176 1177 1158
1211 3 2 2 1 1158 1177 1178 1159
1212 3 2 2 1 1159 1178 1179 1160
1213 3 2 2 1 1160 1179 1180 1161
1214 3 2 2 1 1161 1180 1181 1162
1215 3 2 2 1 1162 1181 1182 1163
1216 3 2 2 1 1163 1182 1183 1164
1217 3 2 2 1 1164 1183 1184 1165
1218 3 2 2 1 1165 1184 1185 1166
1219 3 2 2 1 1166 1185 1186 1167
1220 3 2 2 1 1167 1186 88 89
1221 3 2 2 1 58 59 1187 1168
1222 3 2 2 1 1168 1187 1188 1169
1223 3 2 2 1 1169 1188 1189 1170
1224 3 2 2 1 1170 1189 1190 1171
1225 3 2 2 1 1171 1190 1191 1172
1226 3 2 2 1 1172 1191 1192 1173
1227 3 2 2 1 1173 1192 1193 1174
1228 3 2 2 1 1174 1193 1194 1175
1229 3 2 2 1 1175 1194 1195 1176
1230 3 2 2 1 1176 1195 1196 1177
1231 3 2 2 1 1177 1196 1197 1178
1232 3 2 2 1 1178 1197 1198 1179
1233 3 2 2 1 1179 1198 1199 1180
1234 3 2 2 1 1180 1199 1200 1181
1235 3 2 2 1 1181 1200 1201 1182
1236 3 2 2 1 1182 1201 1202 1183
1237 3 2 2 1 1183 1202 1203 1184
1238 3 2 2 1 1184 1203 1204 1185
1239 3 2 2 1 1185 1204 1205 1186
1240 3 2 2 1 1186 1205 87 88
1241 3 2 2 1 59 60 1206 1187
1242 3 2 2 1 1187 1206 1207 1188
1243 3 2 2 1 1188 1207 1208 1189
1244 3 2 2 1 1189 1208 1209 1190
1245 3 2 2 1 1190 1209 1210 1191
1246 3 2 2 1 1191 1210 1211 1192
1247 3 2 2 1 1192 1211 1212 1193
1248 3 2 2 1 1193 1212 1213 1194
1249 3 2 2 1 1194 1213 1214 1195
1250 3 2 2 1 1195 1214 1215 1196
1251 3 2 2 1 1196 1215 1216 1197
1252 3 2 2 1 1197 1216 1217 1198
1253 3 2 2 1 1198 1217 1218 1199
1254 3 2 2 1 1199 1218 1219 1200
1255 3 2 2 1 1200 1219 1220 1201
1256 3 2 2 1 1201 1220 1221 1202
1257 3 2 2 1 1202 1221 1222 1203
1258 3 2 2 1 1203 1222 1223 1204
1259 3 2 2 1 1204 1223 1224 1205
1260 3 2 2 1 1205 1224 86 87
1261 3 2 2 1 60 61 1225 1206
1262 3 2 2 1 1206 1225 1226 1207
1263 3 2 2 1 1207 1226 1227 1208
1264 3 2 2 1 1208 1227 1228 1209
1265 3 2 2 1 1209 1228 1229 1210
1266 3 2 2 1 1210 1229 1230 1211
1267 3 2 2 1 1211 1230 1231 1212
1268 3 2 2 1 1212 1231 1232 1213
1269 3 2 2 1 1213 1232 1233 1214
1270 3 2 2 1 1214 1233 1234 1215
1271 3 2 2 1 1215 1234 1235 1216
1272 3 2 2 1 1216 1235 1236 1217
1273 3 2 2 1 1217 1236 1237 1218
1274 3 2 2 1 1218 1237 1238 1219
1275 3 2 2 1 1219 1238 1239 1220
1276 3 2 2 1 1220 1239 1240 1221
1277 3 2 2 1 1221 1240 1241 1222
1278 3 2 2 1 1222 1241 1242 1223
1279 3 2 2 1 1223 1242 1243 1224
1280 3 2 2 1 1224 1243 85 86
1281 3 2 2 1 61 62 1244 1225
1282 3 2 2 1 1225 1244 1245 1226
1283 3 2 2 1 1226 1245 1246 1227
1284 3 2 2 1 1227 1246 1247 1228
1285 3 2 2 1 1228 1247 1248 1229
1286 3 2 2 1 1229 1248 1249 1230
1287 3 2 2 1 1230 1249 1250 1231
1288 3 2 2 1 1231 1250 1251 1232
1289 3 2 2 1 1232 1251 1252 1233
1290 3 2 2 1 1233 1252 1253 1234
1291 3 2 2 1 1234 1253 1254 1235
1292 3 2 2 1 1235 1254 1255 1236
1293 3 2 2 1 1236 1255 1256 1237
1294 3 2 2 1 1237 1256 1257 1238
1295 3 2 2 1 1238 1257 1258 1239
1296 3 2 2 1 1239 1258 1259 1240
1297 3 2 2 1 1240 1259 1260 1241
1298 3 2 2 1 1241 1260 1261 1242
1299 3 2 2 1 1242 1261 1262 1243
1300 3 2 2 1 1243 1262 84 85
1301 3 2 2 1 62 63 1263 1244
1302 3 2 2 1 1244 1263 1264 1245
1303 3 2 2 1 1245 1264 1265 1246
1304 3 2 2 1 1246 1265 1266 1247
1305 3 2 2 1 1247 1266 1267 1248
1306 3 2 2 1 1248 1267 1268 1249
1307 3 2 2 1 1249 1268 1269 1250
1308 3 2 2 1 1250 1269 1270 1251
1309 3 2 2 1 1251 1270 1271 1252
1310 3 2 2 1 1252 1271 1272 1253
1311 3 2 2 1 1253 1272 1273 1254
1312 3 2 2 1 1254 1273 1274 1255
1313 3 2 2 1 1255 1274 1275 1256
1314 3 2 2 1 1256 1275 1276 1257
1315 3 2 2 1 1257 1276 1277 1258
1316 3 2 2 1 1258 1277 1278 1259
1317 3 2 2 1 1259 1278 1279 1260
1318 3 2 2 1 1260 1279 1280 1261
1319 3 2 2 1 1261 1280 1281 1262
1320 3 2 2 1 1262 1281 83 84
1321 3 2 2 1 63 2 64 1263
1322 3 2 2 1 1263 64 65 1264
1323 3 2 2 1 1264 65 66 1265
1324 3 2 2 1 1265 66 67 1266
1325 3 2 2 1 1266 67 68 1267
1326 3 2 2 1 1267 68 69 1268
1327 3 2 2 1 1268 69 70 1269
1328 3 2 2 1 1269 70 71 1270
1329 3 2 2 1 1270 71 72 1271
1330 3 2 2 1 1271 72 73 1272
1331 3 2 2 1 1272 73 74 1273
1332 3 2 2 1 1273 74 75 1274
1333 3 2 2 1 1274 75 76 1275
1334 3 2 2 1 1275 76 77 1276
1335 3 2 2 1 1276 77 78 1277
1336 3 2 2 1 1277 78 79 1278
1337 3 2 2 1 1278 79 80 1279
1338 3 2 2 1 1279 80 81 1280
1339 3 2 2 1 1280 81 82 1281
1340 3 2 2 1 1281 82 3 83
$EndElements
